%YAML 1.1
%TAG !u! tag:unity3d.com,2011:
--- !u!29 &1
SceneSettings:
  m_ObjectHideFlags: 0
  m_PVSData: 
  m_PVSObjectsArray: []
  m_PVSPortalsArray: []
  m_OcclusionBakeSettings:
    smallestOccluder: 5
    smallestHole: .25
    backfaceThreshold: 100
--- !u!104 &2
RenderSettings:
  m_Fog: 0
  m_FogColor: {r: .5, g: .5, b: .5, a: 1}
  m_FogMode: 3
  m_FogDensity: .00999999978
  m_LinearFogStart: 0
  m_LinearFogEnd: 300
  m_AmbientLight: {r: .200000003, g: .200000003, b: .200000003, a: 1}
  m_SkyboxMaterial: {fileID: 0}
  m_HaloStrength: .5
  m_FlareStrength: 1
  m_FlareFadeSpeed: 3
  m_HaloTexture: {fileID: 0}
  m_SpotCookie: {fileID: 0}
  m_ObjectHideFlags: 0
--- !u!127 &3
LevelGameManager:
  m_ObjectHideFlags: 0
--- !u!157 &4
LightmapSettings:
  m_ObjectHideFlags: 0
  m_LightProbes: {fileID: 0}
  m_Lightmaps: []
  m_LightmapsMode: 1
  m_BakedColorSpace: 0
  m_UseDualLightmapsInForward: 0
  m_LightmapEditorSettings:
    m_Resolution: 50
    m_LastUsedResolution: 0
    m_TextureWidth: 1024
    m_TextureHeight: 1024
    m_BounceBoost: 1
    m_BounceIntensity: 1
    m_SkyLightColor: {r: .860000014, g: .930000007, b: 1, a: 1}
    m_SkyLightIntensity: 0
    m_Quality: 0
    m_Bounces: 1
    m_FinalGatherRays: 1000
    m_FinalGatherContrastThreshold: .0500000007
    m_FinalGatherGradientThreshold: 0
    m_FinalGatherInterpolationPoints: 15
    m_AOAmount: 0
    m_AOMaxDistance: .100000001
    m_AOContrast: 1
    m_LODSurfaceMappingDistance: 1
    m_Padding: 0
    m_TextureCompression: 0
    m_LockAtlas: 0
--- !u!196 &5
NavMeshSettings:
  m_ObjectHideFlags: 0
  m_BuildSettings:
    agentRadius: .5
    agentHeight: 2
    agentSlope: 45
    agentClimb: .400000006
    ledgeDropHeight: 0
    maxJumpAcrossDistance: 0
    accuratePlacement: 0
    minRegionArea: 2
    widthInaccuracy: 16.666666
    heightInaccuracy: 10
    tileSizeHint: 0
  m_NavMesh: {fileID: 0}
--- !u!1 &38683748
GameObject:
  m_ObjectHideFlags: 0
  m_PrefabParentObject: {fileID: 100002, guid: e983179fcec09fc48861bd150162feee, type: 2}
  m_PrefabInternal: {fileID: 1923765976}
  serializedVersion: 4
  m_Component:
  - 224: {fileID: 38683749}
  - 222: {fileID: 38683752}
  - 114: {fileID: 38683751}
  - 114: {fileID: 38683750}
  m_Layer: 5
  m_Name: Button
  m_TagString: Untagged
  m_Icon: {fileID: 0}
  m_NavMeshLayer: 0
  m_StaticEditorFlags: 0
  m_IsActive: 1
--- !u!224 &38683749
RectTransform:
  m_ObjectHideFlags: 0
  m_PrefabParentObject: {fileID: 22400000, guid: e983179fcec09fc48861bd150162feee,
    type: 2}
  m_PrefabInternal: {fileID: 1923765976}
  m_GameObject: {fileID: 38683748}
  m_LocalRotation: {x: 0, y: 0, z: 0, w: 1}
  m_LocalPosition: {x: 0, y: 0, z: 0}
  m_LocalScale: {x: 1, y: 1, z: 1}
  m_Children:
  - {fileID: 254290059}
  m_Father: {fileID: 386135611}
  m_RootOrder: 1
  m_AnchorMin: {x: .5, y: 0}
  m_AnchorMax: {x: .5, y: 0}
  m_AnchoredPosition: {x: 0, y: 40}
  m_SizeDelta: {x: 50, y: 50}
  m_Pivot: {x: .5, y: .5}
--- !u!114 &38683750
MonoBehaviour:
  m_ObjectHideFlags: 0
  m_PrefabParentObject: {fileID: 11400000, guid: e983179fcec09fc48861bd150162feee,
    type: 2}
  m_PrefabInternal: {fileID: 1923765976}
  m_GameObject: {fileID: 38683748}
  m_Enabled: 1
  m_EditorHideFlags: 0
  m_Script: {fileID: 1392445389, guid: f5f67c52d1564df4a8936ccd202a3bd8, type: 3}
  m_Name: 
  m_EditorClassIdentifier: 
  m_Navigation:
    m_Mode: 3
    m_SelectOnUp: {fileID: 0}
    m_SelectOnDown: {fileID: 0}
    m_SelectOnLeft: {fileID: 0}
    m_SelectOnRight: {fileID: 0}
  m_Transition: 1
  m_Colors:
    m_NormalColor: {r: .380392164, g: .686274529, b: 1, a: 1}
    m_HighlightedColor: {r: .522058845, g: .758004487, b: 1, a: 1}
    m_PressedColor: {r: .380392164, g: .686274529, b: 1, a: 1}
    m_DisabledColor: {r: .250980407, g: .250980407, b: .250980407, a: .501960814}
    m_ColorMultiplier: 2
    m_FadeDuration: .100000001
  m_SpriteState:
    m_HighlightedSprite: {fileID: 0}
    m_PressedSprite: {fileID: 0}
    m_DisabledSprite: {fileID: 0}
  m_AnimationTriggers:
    m_NormalTrigger: Normal
    m_HighlightedTrigger: Highlighted
    m_PressedTrigger: Pressed
    m_DisabledTrigger: Disabled
  m_Interactable: 1
  m_TargetGraphic: {fileID: 38683751}
  m_OnClick:
    m_PersistentCalls:
      m_Calls:
      - m_Target: {fileID: 877955796}
        m_MethodName: SetActive
        m_Mode: 6
        m_Arguments:
          m_ObjectArgument: {fileID: 0}
          m_ObjectArgumentAssemblyTypeName: UnityEngine.Object, UnityEngine, Version=0.0.0.0,
            Culture=neutral, PublicKeyToken=null
          m_IntArgument: 0
          m_FloatArgument: 0
          m_StringArgument: 
          m_BoolArgument: 0
        m_CallState: 1
    m_TypeName: UnityEngine.UI.Button+ButtonClickedEvent, UnityEngine.UI, Version=1.0.0.0,
      Culture=neutral, PublicKeyToken=null
--- !u!114 &38683751
MonoBehaviour:
  m_ObjectHideFlags: 0
  m_PrefabParentObject: {fileID: 11400002, guid: e983179fcec09fc48861bd150162feee,
    type: 2}
  m_PrefabInternal: {fileID: 1923765976}
  m_GameObject: {fileID: 38683748}
  m_Enabled: 1
  m_EditorHideFlags: 0
  m_Script: {fileID: -765806418, guid: f5f67c52d1564df4a8936ccd202a3bd8, type: 3}
  m_Name: 
  m_EditorClassIdentifier: 
  m_Material: {fileID: 0}
  m_Color: {r: .610294104, g: .610294104, b: .610294104, a: 1}
  m_Sprite: {fileID: 21300000, guid: 56f0487aa75c16442b6a6997355c3bda, type: 3}
  m_Type: 1
  m_PreserveAspect: 0
  m_FillCenter: 1
  m_FillMethod: 4
  m_FillAmount: 1
  m_FillClockwise: 1
  m_FillOrigin: 0
--- !u!222 &38683752
CanvasRenderer:
  m_ObjectHideFlags: 0
  m_PrefabParentObject: {fileID: 22200000, guid: e983179fcec09fc48861bd150162feee,
    type: 2}
  m_PrefabInternal: {fileID: 1923765976}
  m_GameObject: {fileID: 38683748}
--- !u!1 &48092801
GameObject:
  m_ObjectHideFlags: 0
  m_PrefabParentObject: {fileID: 0}
  m_PrefabInternal: {fileID: 0}
  serializedVersion: 4
  m_Component:
  - 224: {fileID: 48092802}
  - 222: {fileID: 48092804}
  - 114: {fileID: 48092803}
  - 114: {fileID: 48092805}
  m_Layer: 5
  m_Name: Text
  m_TagString: Untagged
  m_Icon: {fileID: 0}
  m_NavMeshLayer: 0
  m_StaticEditorFlags: 0
  m_IsActive: 1
--- !u!224 &48092802
RectTransform:
  m_ObjectHideFlags: 0
  m_PrefabParentObject: {fileID: 0}
  m_PrefabInternal: {fileID: 0}
  m_GameObject: {fileID: 48092801}
  m_LocalRotation: {x: 0, y: 0, z: 0, w: 1}
  m_LocalPosition: {x: 0, y: 0, z: 0}
  m_LocalScale: {x: 1, y: 1, z: 1}
  m_Children: []
  m_Father: {fileID: 1430777949}
  m_RootOrder: 0
  m_AnchorMin: {x: 0, y: 0}
  m_AnchorMax: {x: 1, y: 1}
  m_AnchoredPosition: {x: 0, y: 0}
  m_SizeDelta: {x: 0, y: 0}
  m_Pivot: {x: .5, y: .5}
--- !u!114 &48092803
MonoBehaviour:
  m_ObjectHideFlags: 0
  m_PrefabParentObject: {fileID: 0}
  m_PrefabInternal: {fileID: 0}
  m_GameObject: {fileID: 48092801}
  m_Enabled: 1
  m_EditorHideFlags: 0
  m_Script: {fileID: 708705254, guid: f5f67c52d1564df4a8936ccd202a3bd8, type: 3}
  m_Name: 
  m_EditorClassIdentifier: 
  m_Material: {fileID: 0}
  m_Color: {r: 1, g: 1, b: 1, a: 1}
  m_FontData:
    m_Font: {fileID: 10102, guid: 0000000000000000e000000000000000, type: 0}
    m_FontSize: 16
    m_FontStyle: 1
    m_BestFit: 0
    m_MinSize: 10
    m_MaxSize: 40
    m_Alignment: 4
    m_RichText: 1
    m_HorizontalOverflow: 0
    m_VerticalOverflow: 0
    m_LineSpacing: 1
  m_Text: CLOSE
--- !u!222 &48092804
CanvasRenderer:
  m_ObjectHideFlags: 0
  m_PrefabParentObject: {fileID: 0}
  m_PrefabInternal: {fileID: 0}
  m_GameObject: {fileID: 48092801}
--- !u!114 &48092805
MonoBehaviour:
  m_ObjectHideFlags: 0
  m_PrefabParentObject: {fileID: 0}
  m_PrefabInternal: {fileID: 0}
  m_GameObject: {fileID: 48092801}
  m_Enabled: 1
  m_EditorHideFlags: 0
  m_Script: {fileID: 1573420865, guid: f5f67c52d1564df4a8936ccd202a3bd8, type: 3}
  m_Name: 
  m_EditorClassIdentifier: 
  m_EffectColor: {r: 0, g: 0, b: 0, a: .5}
  m_EffectDistance: {x: 1, y: -1}
  m_UseGraphicAlpha: 1
--- !u!1 &106185994
GameObject:
  m_ObjectHideFlags: 0
  m_PrefabParentObject: {fileID: 100002, guid: d8893a44b67c86a45b0ef2c9bbfc0df0, type: 2}
  m_PrefabInternal: {fileID: 1441182877}
  serializedVersion: 4
  m_Component:
  - 224: {fileID: 106185995}
  - 222: {fileID: 106185997}
  - 114: {fileID: 106185996}
  - 114: {fileID: 106185998}
  m_Layer: 5
  m_Name: Sprite (Front)
  m_TagString: Untagged
  m_Icon: {fileID: 0}
  m_NavMeshLayer: 0
  m_StaticEditorFlags: 0
  m_IsActive: 1
--- !u!224 &106185995
RectTransform:
  m_ObjectHideFlags: 0
  m_PrefabParentObject: {fileID: 22400000, guid: d8893a44b67c86a45b0ef2c9bbfc0df0,
    type: 2}
  m_PrefabInternal: {fileID: 1441182877}
  m_GameObject: {fileID: 106185994}
  m_LocalRotation: {x: 0, y: 0, z: 0, w: 1}
  m_LocalPosition: {x: 0, y: 0, z: 0}
  m_LocalScale: {x: 1, y: 1, z: 1}
  m_Children: []
  m_Father: {fileID: 1223448431}
  m_RootOrder: 1
  m_AnchorMin: {x: 0, y: 0}
  m_AnchorMax: {x: 1, y: 1}
  m_AnchoredPosition: {x: 0, y: 0}
  m_SizeDelta: {x: 800, y: 800}
  m_Pivot: {x: .5, y: .5}
--- !u!114 &106185996
MonoBehaviour:
  m_ObjectHideFlags: 0
  m_PrefabParentObject: {fileID: 11400000, guid: d8893a44b67c86a45b0ef2c9bbfc0df0,
    type: 2}
  m_PrefabInternal: {fileID: 1441182877}
  m_GameObject: {fileID: 106185994}
  m_Enabled: 1
  m_EditorHideFlags: 0
  m_Script: {fileID: -765806418, guid: f5f67c52d1564df4a8936ccd202a3bd8, type: 3}
  m_Name: 
  m_EditorClassIdentifier: 
  m_Material: {fileID: 0}
  m_Color: {r: 1, g: 0, b: 0, a: 1}
  m_Sprite: {fileID: 21300000, guid: 901d92dfa17056246b20f349bb82bc96, type: 3}
  m_Type: 0
  m_PreserveAspect: 1
  m_FillCenter: 1
  m_FillMethod: 4
  m_FillAmount: 1
  m_FillClockwise: 1
  m_FillOrigin: 0
--- !u!222 &106185997
CanvasRenderer:
  m_ObjectHideFlags: 0
  m_PrefabParentObject: {fileID: 22200000, guid: d8893a44b67c86a45b0ef2c9bbfc0df0,
    type: 2}
  m_PrefabInternal: {fileID: 1441182877}
  m_GameObject: {fileID: 106185994}
--- !u!114 &106185998
MonoBehaviour:
  m_ObjectHideFlags: 0
  m_PrefabParentObject: {fileID: 11400006, guid: d8893a44b67c86a45b0ef2c9bbfc0df0,
    type: 2}
  m_PrefabInternal: {fileID: 1441182877}
  m_GameObject: {fileID: 106185994}
  m_Enabled: 1
  m_EditorHideFlags: 0
  m_Script: {fileID: 11500000, guid: 8a042f47c7e469347af8bfd2d112a359, type: 3}
  m_Name: 
  m_EditorClassIdentifier: 
  rotationsPerSecond: .0500000007
--- !u!1 &254290058
GameObject:
  m_ObjectHideFlags: 0
  m_PrefabParentObject: {fileID: 100000, guid: e983179fcec09fc48861bd150162feee, type: 2}
  m_PrefabInternal: {fileID: 1923765976}
  serializedVersion: 4
  m_Component:
  - 224: {fileID: 254290059}
  - 222: {fileID: 254290061}
  - 114: {fileID: 254290060}
  m_Layer: 5
  m_Name: Check
  m_TagString: Untagged
  m_Icon: {fileID: 0}
  m_NavMeshLayer: 0
  m_StaticEditorFlags: 0
  m_IsActive: 1
--- !u!224 &254290059
RectTransform:
  m_ObjectHideFlags: 0
  m_PrefabParentObject: {fileID: 22400002, guid: e983179fcec09fc48861bd150162feee,
    type: 2}
  m_PrefabInternal: {fileID: 1923765976}
  m_GameObject: {fileID: 254290058}
  m_LocalRotation: {x: 0, y: 0, z: 0, w: 1}
  m_LocalPosition: {x: 0, y: 0, z: 0}
  m_LocalScale: {x: 1, y: 1, z: 1}
  m_Children: []
  m_Father: {fileID: 38683749}
  m_RootOrder: 0
  m_AnchorMin: {x: .5, y: .5}
  m_AnchorMax: {x: .5, y: .5}
  m_AnchoredPosition: {x: 0, y: 0}
  m_SizeDelta: {x: 60, y: 45}
  m_Pivot: {x: .5, y: .5}
--- !u!114 &254290060
MonoBehaviour:
  m_ObjectHideFlags: 0
  m_PrefabParentObject: {fileID: 11400004, guid: e983179fcec09fc48861bd150162feee,
    type: 2}
  m_PrefabInternal: {fileID: 1923765976}
  m_GameObject: {fileID: 254290058}
  m_Enabled: 1
  m_EditorHideFlags: 0
  m_Script: {fileID: -765806418, guid: f5f67c52d1564df4a8936ccd202a3bd8, type: 3}
  m_Name: 
  m_EditorClassIdentifier: 
  m_Material: {fileID: 0}
  m_Color: {r: 1, g: 1, b: 1, a: 1}
  m_Sprite: {fileID: 21300000, guid: 5210c97c6656e4a4690c670589686526, type: 3}
  m_Type: 0
  m_PreserveAspect: 0
  m_FillCenter: 1
  m_FillMethod: 4
  m_FillAmount: 1
  m_FillClockwise: 1
  m_FillOrigin: 0
--- !u!222 &254290061
CanvasRenderer:
  m_ObjectHideFlags: 0
  m_PrefabParentObject: {fileID: 22200002, guid: e983179fcec09fc48861bd150162feee,
    type: 2}
  m_PrefabInternal: {fileID: 1923765976}
  m_GameObject: {fileID: 254290058}
--- !u!1 &347038141
GameObject:
  m_ObjectHideFlags: 0
  m_PrefabParentObject: {fileID: 0}
  m_PrefabInternal: {fileID: 0}
  serializedVersion: 4
  m_Component:
  - 224: {fileID: 347038142}
  - 222: {fileID: 347038144}
  - 114: {fileID: 347038143}
  m_Layer: 5
  m_Name: Window - IAP
  m_TagString: Untagged
  m_Icon: {fileID: 0}
  m_NavMeshLayer: 0
  m_StaticEditorFlags: 0
  m_IsActive: 1
--- !u!224 &347038142
RectTransform:
  m_ObjectHideFlags: 0
  m_PrefabParentObject: {fileID: 0}
  m_PrefabInternal: {fileID: 0}
  m_GameObject: {fileID: 347038141}
  m_LocalRotation: {x: 0, y: 0, z: 0, w: 1}
  m_LocalPosition: {x: 0, y: 0, z: 0}
  m_LocalScale: {x: 1, y: 1, z: 1}
  m_Children:
  - {fileID: 927256391}
  - {fileID: 1369524523}
  m_Father: {fileID: 1792144032}
  m_RootOrder: 1
  m_AnchorMin: {x: .0500000007, y: .100000001}
  m_AnchorMax: {x: .949999988, y: .899999976}
  m_AnchoredPosition: {x: 0, y: 0}
  m_SizeDelta: {x: 0, y: 0}
  m_Pivot: {x: .5, y: .5}
--- !u!114 &347038143
MonoBehaviour:
  m_ObjectHideFlags: 0
  m_PrefabParentObject: {fileID: 0}
  m_PrefabInternal: {fileID: 0}
  m_GameObject: {fileID: 347038141}
  m_Enabled: 1
  m_EditorHideFlags: 0
  m_Script: {fileID: -765806418, guid: f5f67c52d1564df4a8936ccd202a3bd8, type: 3}
  m_Name: 
  m_EditorClassIdentifier: 
  m_Material: {fileID: 0}
  m_Color: {r: 1, g: 1, b: 1, a: 1}
  m_Sprite: {fileID: 21300000, guid: 56f0487aa75c16442b6a6997355c3bda, type: 3}
  m_Type: 1
  m_PreserveAspect: 0
  m_FillCenter: 1
  m_FillMethod: 4
  m_FillAmount: 1
  m_FillClockwise: 1
  m_FillOrigin: 0
--- !u!222 &347038144
CanvasRenderer:
  m_ObjectHideFlags: 0
  m_PrefabParentObject: {fileID: 0}
  m_PrefabInternal: {fileID: 0}
  m_GameObject: {fileID: 347038141}
--- !u!1 &386135610
GameObject:
  m_ObjectHideFlags: 0
  m_PrefabParentObject: {fileID: 100004, guid: e983179fcec09fc48861bd150162feee, type: 2}
  m_PrefabInternal: {fileID: 1923765976}
  serializedVersion: 4
  m_Component:
  - 224: {fileID: 386135611}
  - 222: {fileID: 386135613}
  - 114: {fileID: 386135612}
  - 95: {fileID: 386135614}
  m_Layer: 5
  m_Name: Window
  m_TagString: Untagged
  m_Icon: {fileID: 0}
  m_NavMeshLayer: 0
  m_StaticEditorFlags: 0
  m_IsActive: 1
--- !u!224 &386135611
RectTransform:
  m_ObjectHideFlags: 0
  m_PrefabParentObject: {fileID: 22400006, guid: e983179fcec09fc48861bd150162feee,
    type: 2}
  m_PrefabInternal: {fileID: 1923765976}
  m_GameObject: {fileID: 386135610}
  m_LocalRotation: {x: 0, y: 0, z: 0, w: 1}
  m_LocalPosition: {x: 0, y: 0, z: 0}
  m_LocalScale: {x: .800000012, y: .800000012, z: .800000012}
  m_Children:
  - {fileID: 2062981293}
  - {fileID: 38683749}
  m_Father: {fileID: 877955797}
  m_RootOrder: 1
  m_AnchorMin: {x: .200000003, y: .200000003}
  m_AnchorMax: {x: .800000012, y: .800000012}
  m_AnchoredPosition: {x: 0, y: 0}
  m_SizeDelta: {x: 0, y: 0}
  m_Pivot: {x: .5, y: .5}
--- !u!114 &386135612
MonoBehaviour:
  m_ObjectHideFlags: 0
  m_PrefabParentObject: {fileID: 11400008, guid: e983179fcec09fc48861bd150162feee,
    type: 2}
  m_PrefabInternal: {fileID: 1923765976}
  m_GameObject: {fileID: 386135610}
  m_Enabled: 1
  m_EditorHideFlags: 0
  m_Script: {fileID: -765806418, guid: f5f67c52d1564df4a8936ccd202a3bd8, type: 3}
  m_Name: 
  m_EditorClassIdentifier: 
  m_Material: {fileID: 0}
  m_Color: {r: .352941155, g: .352941155, b: .352941155, a: 1}
  m_Sprite: {fileID: 21300000, guid: 82a05787c640f0d4aaa795aaac431ed0, type: 3}
  m_Type: 1
  m_PreserveAspect: 0
  m_FillCenter: 1
  m_FillMethod: 4
  m_FillAmount: 1
  m_FillClockwise: 1
  m_FillOrigin: 0
--- !u!222 &386135613
CanvasRenderer:
  m_ObjectHideFlags: 0
  m_PrefabParentObject: {fileID: 22200006, guid: e983179fcec09fc48861bd150162feee,
    type: 2}
  m_PrefabInternal: {fileID: 1923765976}
  m_GameObject: {fileID: 386135610}
--- !u!95 &386135614
Animator:
  serializedVersion: 3
  m_ObjectHideFlags: 0
  m_PrefabParentObject: {fileID: 9500000, guid: e983179fcec09fc48861bd150162feee,
    type: 2}
  m_PrefabInternal: {fileID: 1923765976}
  m_GameObject: {fileID: 386135610}
  m_Enabled: 1
  m_Avatar: {fileID: 0}
  m_Controller: {fileID: 9100000, guid: f2a132dfa6f0b634b9b1b076ec6d17fb, type: 2}
  m_CullingMode: 0
  m_UpdateMode: 0
  m_ApplyRootMotion: 0
  m_HasTransformHierarchy: 1
  m_AllowConstantClipSamplingOptimization: 1
--- !u!1 &389301004
GameObject:
  m_ObjectHideFlags: 0
  m_PrefabParentObject: {fileID: 100000, guid: d8893a44b67c86a45b0ef2c9bbfc0df0, type: 2}
  m_PrefabInternal: {fileID: 1441182877}
  serializedVersion: 4
  m_Component:
  - 224: {fileID: 389301005}
  - 222: {fileID: 389301007}
  - 114: {fileID: 389301006}
  m_Layer: 5
  m_Name: Sprite (Back)
  m_TagString: Untagged
  m_Icon: {fileID: 0}
  m_NavMeshLayer: 0
  m_StaticEditorFlags: 0
  m_IsActive: 1
--- !u!224 &389301005
RectTransform:
  m_ObjectHideFlags: 0
  m_PrefabParentObject: {fileID: 22400002, guid: d8893a44b67c86a45b0ef2c9bbfc0df0,
    type: 2}
  m_PrefabInternal: {fileID: 1441182877}
  m_GameObject: {fileID: 389301004}
  m_LocalRotation: {x: 0, y: 0, z: 0, w: 1}
  m_LocalPosition: {x: 0, y: 0, z: 0}
  m_LocalScale: {x: 1, y: 1, z: 1}
  m_Children: []
  m_Father: {fileID: 1223448431}
  m_RootOrder: 0
  m_AnchorMin: {x: 0, y: 0}
  m_AnchorMax: {x: 1, y: 1}
  m_AnchoredPosition: {x: 0, y: 0}
  m_SizeDelta: {x: 800, y: 800}
  m_Pivot: {x: .5, y: .5}
--- !u!114 &389301006
MonoBehaviour:
  m_ObjectHideFlags: 0
  m_PrefabParentObject: {fileID: 11400002, guid: d8893a44b67c86a45b0ef2c9bbfc0df0,
    type: 2}
  m_PrefabInternal: {fileID: 1441182877}
  m_GameObject: {fileID: 389301004}
  m_Enabled: 1
  m_EditorHideFlags: 0
  m_Script: {fileID: -765806418, guid: f5f67c52d1564df4a8936ccd202a3bd8, type: 3}
  m_Name: 
  m_EditorClassIdentifier: 
  m_Material: {fileID: 0}
  m_Color: {r: 1, g: .855710328, b: .564705849, a: 1}
  m_Sprite: {fileID: 21300000, guid: 27daf848b4665984f846b2b4cae3061e, type: 3}
  m_Type: 0
  m_PreserveAspect: 1
  m_FillCenter: 1
  m_FillMethod: 4
  m_FillAmount: 1
  m_FillClockwise: 1
  m_FillOrigin: 0
--- !u!222 &389301007
CanvasRenderer:
  m_ObjectHideFlags: 0
  m_PrefabParentObject: {fileID: 22200002, guid: d8893a44b67c86a45b0ef2c9bbfc0df0,
    type: 2}
  m_PrefabInternal: {fileID: 1441182877}
  m_GameObject: {fileID: 389301004}
--- !u!1 &402363980
GameObject:
  m_ObjectHideFlags: 0
  m_PrefabParentObject: {fileID: 0}
  m_PrefabInternal: {fileID: 0}
  serializedVersion: 4
  m_Component:
  - 224: {fileID: 402363981}
  - 114: {fileID: 402363982}
  - 114: {fileID: 402363983}
  m_Layer: 5
  m_Name: Container
  m_TagString: Untagged
  m_Icon: {fileID: 0}
  m_NavMeshLayer: 0
  m_StaticEditorFlags: 0
  m_IsActive: 1
--- !u!224 &402363981
RectTransform:
  m_ObjectHideFlags: 0
  m_PrefabParentObject: {fileID: 0}
  m_PrefabInternal: {fileID: 0}
  m_GameObject: {fileID: 402363980}
  m_LocalRotation: {x: 0, y: 0, z: 0, w: 1}
  m_LocalPosition: {x: 0, y: 0, z: 0}
  m_LocalScale: {x: 1, y: 1, z: 1}
  m_Children: []
  m_Father: {fileID: 1369524523}
  m_RootOrder: 0
  m_AnchorMin: {x: 0, y: 0}
  m_AnchorMax: {x: 0, y: 1}
  m_AnchoredPosition: {x: 0, y: 5}
  m_SizeDelta: {x: 0, y: -10}
  m_Pivot: {x: -3.57627869e-07, y: .5}
--- !u!114 &402363982
MonoBehaviour:
  m_ObjectHideFlags: 0
  m_PrefabParentObject: {fileID: 0}
  m_PrefabInternal: {fileID: 0}
  m_GameObject: {fileID: 402363980}
  m_Enabled: 0
  m_EditorHideFlags: 0
  m_Script: {fileID: -2095666955, guid: f5f67c52d1564df4a8936ccd202a3bd8, type: 3}
  m_Name: 
  m_EditorClassIdentifier: 
  m_Padding:
    m_Left: 10
    m_Right: 10
    m_Top: 10
    m_Bottom: 0
  m_ChildAlignment: 1
  m_StartCorner: 0
  m_StartAxis: 0
  m_CellSize: {x: 0, y: 0}
  m_Spacing: {x: 8, y: 0}
  m_Constraint: 0
  m_ConstraintCount: 2
--- !u!114 &402363983
MonoBehaviour:
  m_ObjectHideFlags: 0
  m_PrefabParentObject: {fileID: 0}
  m_PrefabInternal: {fileID: 0}
  m_GameObject: {fileID: 402363980}
  m_Enabled: 1
  m_EditorHideFlags: 0
  m_Script: {fileID: 11500000, guid: bf56df8e0c2a0404882797cba5a253f4, type: 3}
  m_Name: 
  m_EditorClassIdentifier: 
  maxCellSizeX: 0
  maxCellSizeY: 300
--- !u!1 &490319016
GameObject:
  m_ObjectHideFlags: 0
  m_PrefabParentObject: {fileID: 0}
  m_PrefabInternal: {fileID: 0}
  serializedVersion: 4
  m_Component:
  - 224: {fileID: 490319017}
  m_Layer: 5
  m_Name: Sliding Area
  m_TagString: Untagged
  m_Icon: {fileID: 0}
  m_NavMeshLayer: 0
  m_StaticEditorFlags: 0
  m_IsActive: 1
--- !u!224 &490319017
RectTransform:
  m_ObjectHideFlags: 0
  m_PrefabParentObject: {fileID: 0}
  m_PrefabInternal: {fileID: 0}
  m_GameObject: {fileID: 490319016}
  m_LocalRotation: {x: 0, y: 0, z: 0, w: 1}
  m_LocalPosition: {x: 0, y: 0, z: 0}
  m_LocalScale: {x: 1, y: 1, z: 1}
  m_Children:
  - {fileID: 1207385847}
  m_Father: {fileID: 927256391}
  m_RootOrder: 0
  m_AnchorMin: {x: 0, y: 0}
  m_AnchorMax: {x: 1, y: 1}
  m_AnchoredPosition: {x: 0, y: 0}
  m_SizeDelta: {x: -20, y: -20}
  m_Pivot: {x: .5, y: .5}
--- !u!1 &496806805
GameObject:
  m_ObjectHideFlags: 0
  m_PrefabParentObject: {fileID: 100008, guid: e983179fcec09fc48861bd150162feee, type: 2}
  m_PrefabInternal: {fileID: 1923765976}
  serializedVersion: 4
  m_Component:
  - 224: {fileID: 496806806}
  - 222: {fileID: 496806808}
  - 114: {fileID: 496806807}
  m_Layer: 5
  m_Name: Background
  m_TagString: Untagged
  m_Icon: {fileID: 0}
  m_NavMeshLayer: 0
  m_StaticEditorFlags: 0
  m_IsActive: 1
--- !u!224 &496806806
RectTransform:
  m_ObjectHideFlags: 0
  m_PrefabParentObject: {fileID: 22400008, guid: e983179fcec09fc48861bd150162feee,
    type: 2}
  m_PrefabInternal: {fileID: 1923765976}
  m_GameObject: {fileID: 496806805}
  m_LocalRotation: {x: 0, y: 0, z: 0, w: 1}
  m_LocalPosition: {x: 0, y: 0, z: 0}
  m_LocalScale: {x: 1, y: 1, z: 1}
  m_Children: []
  m_Father: {fileID: 877955797}
  m_RootOrder: 0
  m_AnchorMin: {x: 0, y: 0}
  m_AnchorMax: {x: 1, y: 1}
  m_AnchoredPosition: {x: 0, y: 0}
  m_SizeDelta: {x: 0, y: 0}
  m_Pivot: {x: .5, y: .5}
--- !u!114 &496806807
MonoBehaviour:
  m_ObjectHideFlags: 0
  m_PrefabParentObject: {fileID: 11400010, guid: e983179fcec09fc48861bd150162feee,
    type: 2}
  m_PrefabInternal: {fileID: 1923765976}
  m_GameObject: {fileID: 496806805}
  m_Enabled: 1
  m_EditorHideFlags: 0
  m_Script: {fileID: -765806418, guid: f5f67c52d1564df4a8936ccd202a3bd8, type: 3}
  m_Name: 
  m_EditorClassIdentifier: 
  m_Material: {fileID: 0}
  m_Color: {r: 0, g: 0, b: 0, a: 1}
  m_Sprite: {fileID: 21300000, guid: 015d1406c0bdbc74ca022cd3badea6ce, type: 3}
  m_Type: 1
  m_PreserveAspect: 0
  m_FillCenter: 1
  m_FillMethod: 4
  m_FillAmount: 1
  m_FillClockwise: 1
  m_FillOrigin: 0
--- !u!222 &496806808
CanvasRenderer:
  m_ObjectHideFlags: 0
  m_PrefabParentObject: {fileID: 22200008, guid: e983179fcec09fc48861bd150162feee,
    type: 2}
  m_PrefabInternal: {fileID: 1923765976}
  m_GameObject: {fileID: 496806805}
--- !u!1 &877955796
GameObject:
  m_ObjectHideFlags: 0
  m_PrefabParentObject: {fileID: 100012, guid: e983179fcec09fc48861bd150162feee, type: 2}
  m_PrefabInternal: {fileID: 1923765976}
  serializedVersion: 4
  m_Component:
  - 224: {fileID: 877955797}
  m_Layer: 5
  m_Name: Window - Message
  m_TagString: Untagged
  m_Icon: {fileID: 0}
  m_NavMeshLayer: 0
  m_StaticEditorFlags: 0
  m_IsActive: 0
--- !u!224 &877955797
RectTransform:
  m_ObjectHideFlags: 0
  m_PrefabParentObject: {fileID: 22400010, guid: e983179fcec09fc48861bd150162feee,
    type: 2}
  m_PrefabInternal: {fileID: 1923765976}
  m_GameObject: {fileID: 877955796}
  m_LocalRotation: {x: 0, y: 0, z: 0, w: 1}
  m_LocalPosition: {x: 0, y: 0, z: 0}
  m_LocalScale: {x: 1, y: 1, z: 1}
  m_Children:
  - {fileID: 496806806}
  - {fileID: 386135611}
  m_Father: {fileID: 1792144032}
  m_RootOrder: 3
  m_AnchorMin: {x: 0, y: 0}
  m_AnchorMax: {x: 1, y: 1}
  m_AnchoredPosition: {x: 0, y: 0}
  m_SizeDelta: {x: 0, y: 0}
  m_Pivot: {x: .5, y: .5}
--- !u!1 &927256390
GameObject:
  m_ObjectHideFlags: 0
  m_PrefabParentObject: {fileID: 0}
  m_PrefabInternal: {fileID: 0}
  serializedVersion: 4
  m_Component:
  - 224: {fileID: 927256391}
  - 222: {fileID: 927256394}
  - 114: {fileID: 927256393}
  - 114: {fileID: 927256392}
  m_Layer: 5
  m_Name: Scrollbar
  m_TagString: Untagged
  m_Icon: {fileID: 0}
  m_NavMeshLayer: 0
  m_StaticEditorFlags: 0
  m_IsActive: 1
--- !u!224 &927256391
RectTransform:
  m_ObjectHideFlags: 0
  m_PrefabParentObject: {fileID: 0}
  m_PrefabInternal: {fileID: 0}
  m_GameObject: {fileID: 927256390}
  m_LocalRotation: {x: 0, y: 0, z: 0, w: 1}
  m_LocalPosition: {x: 0, y: 0, z: 0}
  m_LocalScale: {x: 1, y: 1, z: 1}
  m_Children:
  - {fileID: 490319017}
  m_Father: {fileID: 347038142}
  m_RootOrder: 0
  m_AnchorMin: {x: 0, y: 0}
  m_AnchorMax: {x: 1, y: 0}
  m_AnchoredPosition: {x: 0, y: 0}
  m_SizeDelta: {x: 0, y: 30}
  m_Pivot: {x: .5, y: .5}
--- !u!114 &927256392
MonoBehaviour:
  m_ObjectHideFlags: 0
  m_PrefabParentObject: {fileID: 0}
  m_PrefabInternal: {fileID: 0}
  m_GameObject: {fileID: 927256390}
  m_Enabled: 1
  m_EditorHideFlags: 0
  m_Script: {fileID: -2061169968, guid: f5f67c52d1564df4a8936ccd202a3bd8, type: 3}
  m_Name: 
  m_EditorClassIdentifier: 
  m_Navigation:
    m_Mode: 3
    m_SelectOnUp: {fileID: 0}
    m_SelectOnDown: {fileID: 0}
    m_SelectOnLeft: {fileID: 0}
    m_SelectOnRight: {fileID: 0}
  m_Transition: 1
  m_Colors:
    m_NormalColor: {r: .501960814, g: .501960814, b: .501960814, a: .501960814}
    m_HighlightedColor: {r: .501960814, g: .501960814, b: .501960814, a: .698039234}
    m_PressedColor: {r: .345098048, g: .345098048, b: .345098048, a: .698039234}
    m_DisabledColor: {r: .250980407, g: .250980407, b: .250980407, a: .501960814}
    m_ColorMultiplier: 2
    m_FadeDuration: .100000001
  m_SpriteState:
    m_HighlightedSprite: {fileID: 0}
    m_PressedSprite: {fileID: 0}
    m_DisabledSprite: {fileID: 0}
  m_AnimationTriggers:
    m_NormalTrigger: Normal
    m_HighlightedTrigger: Highlighted
    m_PressedTrigger: Pressed
    m_DisabledTrigger: Disabled
  m_Interactable: 1
  m_TargetGraphic: {fileID: 1207385848}
  m_HandleRect: {fileID: 1207385847}
  m_Direction: 0
  m_Value: 0
  m_Size: 1
  m_NumberOfSteps: 0
  m_OnValueChanged:
    m_PersistentCalls:
      m_Calls: []
    m_TypeName: UnityEngine.UI.Scrollbar+ScrollEvent, UnityEngine.UI, Version=1.0.0.0,
      Culture=neutral, PublicKeyToken=null
--- !u!114 &927256393
MonoBehaviour:
  m_ObjectHideFlags: 0
  m_PrefabParentObject: {fileID: 0}
  m_PrefabInternal: {fileID: 0}
  m_GameObject: {fileID: 927256390}
  m_Enabled: 1
  m_EditorHideFlags: 0
  m_Script: {fileID: -765806418, guid: f5f67c52d1564df4a8936ccd202a3bd8, type: 3}
  m_Name: 
  m_EditorClassIdentifier: 
  m_Material: {fileID: 0}
  m_Color: {r: 1, g: 1, b: 1, a: .627451003}
  m_Sprite: {fileID: 21300000, guid: 56f0487aa75c16442b6a6997355c3bda, type: 3}
  m_Type: 1
  m_PreserveAspect: 0
  m_FillCenter: 1
  m_FillMethod: 4
  m_FillAmount: 1
  m_FillClockwise: 1
  m_FillOrigin: 0
--- !u!222 &927256394
CanvasRenderer:
  m_ObjectHideFlags: 0
  m_PrefabParentObject: {fileID: 0}
  m_PrefabInternal: {fileID: 0}
  m_GameObject: {fileID: 927256390}
--- !u!1 &1207385846
GameObject:
  m_ObjectHideFlags: 0
  m_PrefabParentObject: {fileID: 0}
  m_PrefabInternal: {fileID: 0}
  serializedVersion: 4
  m_Component:
  - 224: {fileID: 1207385847}
  - 222: {fileID: 1207385849}
  - 114: {fileID: 1207385848}
  m_Layer: 5
  m_Name: Handle
  m_TagString: Untagged
  m_Icon: {fileID: 0}
  m_NavMeshLayer: 0
  m_StaticEditorFlags: 0
  m_IsActive: 1
--- !u!224 &1207385847
RectTransform:
  m_ObjectHideFlags: 0
  m_PrefabParentObject: {fileID: 0}
  m_PrefabInternal: {fileID: 0}
  m_GameObject: {fileID: 1207385846}
  m_LocalRotation: {x: 0, y: 0, z: 0, w: 1}
  m_LocalPosition: {x: 0, y: 0, z: 0}
  m_LocalScale: {x: 1, y: 1, z: 1}
  m_Children: []
  m_Father: {fileID: 490319017}
  m_RootOrder: 0
  m_AnchorMin: {x: 0, y: 0}
  m_AnchorMax: {x: 0, y: 0}
  m_AnchoredPosition: {x: 0, y: 0}
  m_SizeDelta: {x: 20, y: 20}
  m_Pivot: {x: .5, y: .5}
--- !u!114 &1207385848
MonoBehaviour:
  m_ObjectHideFlags: 0
  m_PrefabParentObject: {fileID: 0}
  m_PrefabInternal: {fileID: 0}
  m_GameObject: {fileID: 1207385846}
  m_Enabled: 1
  m_EditorHideFlags: 0
  m_Script: {fileID: -765806418, guid: f5f67c52d1564df4a8936ccd202a3bd8, type: 3}
  m_Name: 
  m_EditorClassIdentifier: 
  m_Material: {fileID: 0}
  m_Color: {r: 1, g: 1, b: 1, a: .627451003}
  m_Sprite: {fileID: 21300000, guid: 56f0487aa75c16442b6a6997355c3bda, type: 3}
  m_Type: 1
  m_PreserveAspect: 0
  m_FillCenter: 1
  m_FillMethod: 4
  m_FillAmount: 1
  m_FillClockwise: 1
  m_FillOrigin: 0
--- !u!222 &1207385849
CanvasRenderer:
  m_ObjectHideFlags: 0
  m_PrefabParentObject: {fileID: 0}
  m_PrefabInternal: {fileID: 0}
  m_GameObject: {fileID: 1207385846}
--- !u!1 &1223448430
GameObject:
  m_ObjectHideFlags: 0
  m_PrefabParentObject: {fileID: 100004, guid: d8893a44b67c86a45b0ef2c9bbfc0df0, type: 2}
  m_PrefabInternal: {fileID: 1441182877}
  serializedVersion: 4
  m_Component:
  - 224: {fileID: 1223448431}
  m_Layer: 5
  m_Name: Window - Wallpaper
  m_TagString: Untagged
  m_Icon: {fileID: 0}
  m_NavMeshLayer: 0
  m_StaticEditorFlags: 0
  m_IsActive: 1
--- !u!224 &1223448431
RectTransform:
  m_ObjectHideFlags: 0
  m_PrefabParentObject: {fileID: 22400004, guid: d8893a44b67c86a45b0ef2c9bbfc0df0,
    type: 2}
  m_PrefabInternal: {fileID: 1441182877}
  m_GameObject: {fileID: 1223448430}
  m_LocalRotation: {x: 0, y: 0, z: 0, w: 1}
  m_LocalPosition: {x: 0, y: 0, z: 0}
  m_LocalScale: {x: 1, y: 1, z: 1}
  m_Children:
  - {fileID: 389301005}
  - {fileID: 106185995}
  m_Father: {fileID: 1792144032}
  m_RootOrder: 0
  m_AnchorMin: {x: 0, y: 0}
  m_AnchorMax: {x: 1, y: 1}
  m_AnchoredPosition: {x: 0, y: 0}
  m_SizeDelta: {x: 0, y: 0}
  m_Pivot: {x: .5, y: .5}
--- !u!1 &1369524522
GameObject:
  m_ObjectHideFlags: 0
  m_PrefabParentObject: {fileID: 0}
  m_PrefabInternal: {fileID: 0}
  serializedVersion: 4
  m_Component:
  - 224: {fileID: 1369524523}
  - 114: {fileID: 1369524527}
  - 114: {fileID: 1369524526}
  - 222: {fileID: 1369524525}
  - 114: {fileID: 1369524524}
  m_Layer: 5
  m_Name: ScrollView
  m_TagString: Untagged
  m_Icon: {fileID: 0}
  m_NavMeshLayer: 0
  m_StaticEditorFlags: 0
  m_IsActive: 1
--- !u!224 &1369524523
RectTransform:
  m_ObjectHideFlags: 0
  m_PrefabParentObject: {fileID: 0}
  m_PrefabInternal: {fileID: 0}
  m_GameObject: {fileID: 1369524522}
  m_LocalRotation: {x: 0, y: 0, z: 0, w: 1}
  m_LocalPosition: {x: 0, y: 0, z: 0}
  m_LocalScale: {x: 1, y: 1, z: 1}
  m_Children:
  - {fileID: 402363981}
  m_Father: {fileID: 347038142}
  m_RootOrder: 1
  m_AnchorMin: {x: 0, y: 0}
  m_AnchorMax: {x: 1, y: 1}
  m_AnchoredPosition: {x: 0, y: 0}
  m_SizeDelta: {x: -22, y: -20}
  m_Pivot: {x: .49999997, y: .5}
--- !u!114 &1369524524
MonoBehaviour:
  m_ObjectHideFlags: 0
  m_PrefabParentObject: {fileID: 0}
  m_PrefabInternal: {fileID: 0}
  m_GameObject: {fileID: 1369524522}
  m_Enabled: 1
  m_EditorHideFlags: 0
  m_Script: {fileID: -765806418, guid: f5f67c52d1564df4a8936ccd202a3bd8, type: 3}
  m_Name: 
  m_EditorClassIdentifier: 
  m_Material: {fileID: 0}
  m_Color: {r: 1, g: 1, b: 1, a: .0196078438}
  m_Sprite: {fileID: 0}
  m_Type: 0
  m_PreserveAspect: 0
  m_FillCenter: 1
  m_FillMethod: 4
  m_FillAmount: 1
  m_FillClockwise: 1
  m_FillOrigin: 0
--- !u!222 &1369524525
CanvasRenderer:
  m_ObjectHideFlags: 0
  m_PrefabParentObject: {fileID: 0}
  m_PrefabInternal: {fileID: 0}
  m_GameObject: {fileID: 1369524522}
--- !u!114 &1369524526
MonoBehaviour:
  m_ObjectHideFlags: 0
  m_PrefabParentObject: {fileID: 0}
  m_PrefabInternal: {fileID: 0}
  m_GameObject: {fileID: 1369524522}
  m_Enabled: 1
  m_EditorHideFlags: 0
  m_Script: {fileID: -1200242548, guid: f5f67c52d1564df4a8936ccd202a3bd8, type: 3}
  m_Name: 
  m_EditorClassIdentifier: 
  m_ShowMaskGraphic: 1
--- !u!114 &1369524527
MonoBehaviour:
  m_ObjectHideFlags: 0
  m_PrefabParentObject: {fileID: 0}
  m_PrefabInternal: {fileID: 0}
  m_GameObject: {fileID: 1369524522}
  m_Enabled: 1
  m_EditorHideFlags: 0
  m_Script: {fileID: 1367256648, guid: f5f67c52d1564df4a8936ccd202a3bd8, type: 3}
  m_Name: 
  m_EditorClassIdentifier: 
  m_Content: {fileID: 402363981}
  m_Horizontal: 1
  m_Vertical: 0
  m_MovementType: 1
  m_Elasticity: .100000001
  m_Inertia: 1
  m_DecelerationRate: .135000005
  m_ScrollSensitivity: 1
  m_HorizontalScrollbar: {fileID: 927256392}
  m_VerticalScrollbar: {fileID: 0}
  m_OnValueChanged:
    m_PersistentCalls:
      m_Calls: []
    m_TypeName: UnityEngine.UI.ScrollRect+ScrollRectEvent, UnityEngine.UI, Version=1.0.0.0,
      Culture=neutral, PublicKeyToken=null
--- !u!1001 &1394360971
Prefab:
  m_ObjectHideFlags: 0
  serializedVersion: 2
  m_Modification:
    m_TransformParent: {fileID: 0}
    m_Modifications:
    - target: {fileID: 11400000, guid: 452a694c543a4b04583ea27486dd3ad3, type: 2}
      propertyPath: containers.Array.size
      value: 1
      objectReference: {fileID: 0}
    - target: {fileID: 400000, guid: 452a694c543a4b04583ea27486dd3ad3, type: 2}
      propertyPath: m_LocalPosition.x
      value: 0
      objectReference: {fileID: 0}
    - target: {fileID: 400000, guid: 452a694c543a4b04583ea27486dd3ad3, type: 2}
      propertyPath: m_LocalPosition.y
      value: 0
      objectReference: {fileID: 0}
    - target: {fileID: 400000, guid: 452a694c543a4b04583ea27486dd3ad3, type: 2}
      propertyPath: m_LocalPosition.z
      value: 0
      objectReference: {fileID: 0}
    - target: {fileID: 400000, guid: 452a694c543a4b04583ea27486dd3ad3, type: 2}
      propertyPath: m_LocalRotation.x
      value: 0
      objectReference: {fileID: 0}
    - target: {fileID: 400000, guid: 452a694c543a4b04583ea27486dd3ad3, type: 2}
      propertyPath: m_LocalRotation.y
      value: 0
      objectReference: {fileID: 0}
    - target: {fileID: 400000, guid: 452a694c543a4b04583ea27486dd3ad3, type: 2}
      propertyPath: m_LocalRotation.z
      value: 0
      objectReference: {fileID: 0}
    - target: {fileID: 400000, guid: 452a694c543a4b04583ea27486dd3ad3, type: 2}
      propertyPath: m_LocalRotation.w
      value: 1
      objectReference: {fileID: 0}
    - target: {fileID: 11400000, guid: 452a694c543a4b04583ea27486dd3ad3, type: 2}
      propertyPath: containers.Array.data[0].id
      value: IAP1
      objectReference: {fileID: 0}
    - target: {fileID: 11400000, guid: 452a694c543a4b04583ea27486dd3ad3, type: 2}
      propertyPath: containers.Array.data[0].parent
      value: 
      objectReference: {fileID: 402363981}
    - target: {fileID: 11400000, guid: 452a694c543a4b04583ea27486dd3ad3, type: 2}
      propertyPath: containers.Array.data[1].id
      value: 1405262948.9577788
      objectReference: {fileID: 0}
    - target: {fileID: 11400000, guid: 452a694c543a4b04583ea27486dd3ad3, type: 2}
      propertyPath: containers.Array.data[1].parent
      value: 
      objectReference: {fileID: 402363981}
    - target: {fileID: 11400000, guid: 452a694c543a4b04583ea27486dd3ad3, type: 2}
      propertyPath: containers.Array.data[2].id
      value: 1405262948.9577788
      objectReference: {fileID: 0}
    - target: {fileID: 11400000, guid: 452a694c543a4b04583ea27486dd3ad3, type: 2}
      propertyPath: containers.Array.data[3].id
      value: 1405262948.9577788
      objectReference: {fileID: 0}
    - target: {fileID: 11400000, guid: 452a694c543a4b04583ea27486dd3ad3, type: 2}
      propertyPath: containers.Array.data[4].id
      value: 1405262948.9577788
      objectReference: {fileID: 0}
    - target: {fileID: 11400000, guid: 452a694c543a4b04583ea27486dd3ad3, type: 2}
      propertyPath: containers.Array.data[5].id
      value: 1388365213.37915255
      objectReference: {fileID: 0}
    - target: {fileID: 11400000, guid: 452a694c543a4b04583ea27486dd3ad3, type: 2}
      propertyPath: containers.Array.data[6].id
      value: 1386013257.35449757
      objectReference: {fileID: 0}
    - target: {fileID: 11400000, guid: 452a694c543a4b04583ea27486dd3ad3, type: 2}
      propertyPath: containers.Array.data[6].parent
      value: 
      objectReference: {fileID: 0}
    - target: {fileID: 11400000, guid: 452a694c543a4b04583ea27486dd3ad3, type: 2}
      propertyPath: containers.Array.data[0].prefab
      value: 
      objectReference: {fileID: 100036, guid: df169270c64781340a6acb316d725485, type: 2}
    - target: {fileID: 11400000, guid: 452a694c543a4b04583ea27486dd3ad3, type: 2}
      propertyPath: containers.Array.data[6].prefab
      value: 
      objectReference: {fileID: 100036, guid: 1bb115686f811734397b7f26acdd373d, type: 2}
    - target: {fileID: 11400000, guid: 452a694c543a4b04583ea27486dd3ad3, type: 2}
      propertyPath: containers.Array.data[7].id
      value: 1386019309.62793382
      objectReference: {fileID: 0}
    - target: {fileID: 11400000, guid: 452a694c543a4b04583ea27486dd3ad3, type: 2}
      propertyPath: containers.Array.data[7].prefab
      value: 
      objectReference: {fileID: 100036, guid: 1bb115686f811734397b7f26acdd373d, type: 2}
    - target: {fileID: 11400000, guid: 452a694c543a4b04583ea27486dd3ad3, type: 2}
      propertyPath: containers.Array.data[7].parent
      value: 
      objectReference: {fileID: 0}
    - target: {fileID: 11400000, guid: 452a694c543a4b04583ea27486dd3ad3, type: 2}
      propertyPath: containers.Array.data[8].id
      value: 1386019329.83496742
      objectReference: {fileID: 0}
    - target: {fileID: 11400000, guid: 452a694c543a4b04583ea27486dd3ad3, type: 2}
      propertyPath: containers.Array.data[8].prefab
      value: 
      objectReference: {fileID: 100036, guid: 1bb115686f811734397b7f26acdd373d, type: 2}
    - target: {fileID: 11400000, guid: 452a694c543a4b04583ea27486dd3ad3, type: 2}
      propertyPath: containers.Array.data[8].parent
      value: 
      objectReference: {fileID: 0}
    - target: {fileID: 11400000, guid: 452a694c543a4b04583ea27486dd3ad3, type: 2}
      propertyPath: containers.Array.data[9].id
      value: 1386019334.20801503
      objectReference: {fileID: 0}
    - target: {fileID: 11400000, guid: 452a694c543a4b04583ea27486dd3ad3, type: 2}
      propertyPath: containers.Array.data[10].id
      value: 1386019334.2080160
      objectReference: {fileID: 0}
    - target: {fileID: 11400000, guid: 452a694c543a4b04583ea27486dd3ad3, type: 2}
      propertyPath: containers.Array.data[11].id
      value: 1386019334.20801925
      objectReference: {fileID: 0}
    - target: {fileID: 11400000, guid: 452a694c543a4b04583ea27486dd3ad3, type: 2}
      propertyPath: errorWindow
      value: 
      objectReference: {fileID: 877955796}
    - target: {fileID: 11400000, guid: 452a694c543a4b04583ea27486dd3ad3, type: 2}
      propertyPath: message
      value: 
      objectReference: {fileID: 2062981294}
    - target: {fileID: 11400000, guid: 452a694c543a4b04583ea27486dd3ad3, type: 2}
      propertyPath: containers.Array.data[4].prefab
      value: 
      objectReference: {fileID: 100036, guid: df169270c64781340a6acb316d725485, type: 2}
    - target: {fileID: 11400000, guid: 452a694c543a4b04583ea27486dd3ad3, type: 2}
      propertyPath: containers.Array.data[4].parent
      value: 
      objectReference: {fileID: 402363981}
    - target: {fileID: 11400000, guid: 452a694c543a4b04583ea27486dd3ad3, type: 2}
      propertyPath: containers.Array.data[3].prefab
      value: 
      objectReference: {fileID: 100036, guid: df169270c64781340a6acb316d725485, type: 2}
    - target: {fileID: 11400000, guid: 452a694c543a4b04583ea27486dd3ad3, type: 2}
      propertyPath: containers.Array.data[3].parent
      value: 
      objectReference: {fileID: 402363981}
    - target: {fileID: 11400000, guid: 452a694c543a4b04583ea27486dd3ad3, type: 2}
      propertyPath: containers.Array.data[2].prefab
      value: 
      objectReference: {fileID: 100036, guid: df169270c64781340a6acb316d725485, type: 2}
    - target: {fileID: 11400000, guid: 452a694c543a4b04583ea27486dd3ad3, type: 2}
      propertyPath: containers.Array.data[2].parent
      value: 
      objectReference: {fileID: 402363981}
    - target: {fileID: 11400000, guid: 452a694c543a4b04583ea27486dd3ad3, type: 2}
      propertyPath: containers.Array.data[1].prefab
      value: 
      objectReference: {fileID: 100036, guid: df169270c64781340a6acb316d725485, type: 2}
    m_RemovedComponents: []
  m_ParentPrefab: {fileID: 100100000, guid: 452a694c543a4b04583ea27486dd3ad3, type: 2}
  m_RootGameObject: {fileID: 1956967826}
  m_IsPrefabParent: 0
  m_IsExploded: 1
--- !u!1 &1430777945
GameObject:
  m_ObjectHideFlags: 0
  m_PrefabParentObject: {fileID: 0}
  m_PrefabInternal: {fileID: 0}
  serializedVersion: 4
  m_Component:
  - 224: {fileID: 1430777949}
  - 222: {fileID: 1430777948}
  - 114: {fileID: 1430777947}
  - 114: {fileID: 1430777946}
  - 114: {fileID: 1430777950}
  m_Layer: 5
  m_Name: Button - Close
  m_TagString: Untagged
  m_Icon: {fileID: 0}
  m_NavMeshLayer: 0
  m_StaticEditorFlags: 0
  m_IsActive: 1
--- !u!114 &1430777946
MonoBehaviour:
  m_ObjectHideFlags: 0
  m_PrefabParentObject: {fileID: 0}
  m_PrefabInternal: {fileID: 0}
  m_GameObject: {fileID: 1430777945}
  m_Enabled: 1
  m_EditorHideFlags: 0
  m_Script: {fileID: 1392445389, guid: f5f67c52d1564df4a8936ccd202a3bd8, type: 3}
  m_Name: 
  m_EditorClassIdentifier: 
  m_Navigation:
    m_Mode: 3
    m_SelectOnUp: {fileID: 0}
    m_SelectOnDown: {fileID: 0}
    m_SelectOnLeft: {fileID: 0}
    m_SelectOnRight: {fileID: 0}
  m_Transition: 1
  m_Colors:
    m_NormalColor: {r: .380392164, g: .686274529, b: 1, a: 1}
    m_HighlightedColor: {r: .522058845, g: .758004487, b: 1, a: 1}
    m_PressedColor: {r: .380392164, g: .686274529, b: 1, a: 1}
    m_DisabledColor: {r: .250980407, g: .250980407, b: .250980407, a: .501960814}
    m_ColorMultiplier: 2
    m_FadeDuration: .100000001
  m_SpriteState:
    m_HighlightedSprite: {fileID: 0}
    m_PressedSprite: {fileID: 0}
    m_DisabledSprite: {fileID: 0}
  m_AnimationTriggers:
    m_NormalTrigger: Normal
    m_HighlightedTrigger: Highlighted
    m_PressedTrigger: Pressed
    m_DisabledTrigger: Disabled
  m_Interactable: 1
  m_TargetGraphic: {fileID: 1430777947}
  m_OnClick:
    m_PersistentCalls:
      m_Calls:
      - m_Target: {fileID: 1430777950}
        m_MethodName: LoadScene
        m_Mode: 5
        m_Arguments:
          m_ObjectArgument: {fileID: 0}
          m_ObjectArgumentAssemblyTypeName: UnityEngine.Object, UnityEngine, Version=0.0.0.0,
            Culture=neutral, PublicKeyToken=null
          m_IntArgument: 0
          m_FloatArgument: 0
          m_StringArgument: AllSelection
          m_BoolArgument: 0
        m_CallState: 1
    m_TypeName: UnityEngine.UI.Button+ButtonClickedEvent, UnityEngine.UI, Version=1.0.0.0,
      Culture=neutral, PublicKeyToken=null
--- !u!114 &1430777947
MonoBehaviour:
  m_ObjectHideFlags: 0
  m_PrefabParentObject: {fileID: 0}
  m_PrefabInternal: {fileID: 0}
  m_GameObject: {fileID: 1430777945}
  m_Enabled: 1
  m_EditorHideFlags: 0
  m_Script: {fileID: -765806418, guid: f5f67c52d1564df4a8936ccd202a3bd8, type: 3}
  m_Name: 
  m_EditorClassIdentifier: 
  m_Material: {fileID: 0}
  m_Color: {r: .610294104, g: .610294104, b: .610294104, a: 1}
  m_Sprite: {fileID: 21300000, guid: 56f0487aa75c16442b6a6997355c3bda, type: 3}
  m_Type: 1
  m_PreserveAspect: 0
  m_FillCenter: 1
  m_FillMethod: 4
  m_FillAmount: 1
  m_FillClockwise: 1
  m_FillOrigin: 0
--- !u!222 &1430777948
CanvasRenderer:
  m_ObjectHideFlags: 0
  m_PrefabParentObject: {fileID: 0}
  m_PrefabInternal: {fileID: 0}
  m_GameObject: {fileID: 1430777945}
--- !u!224 &1430777949
RectTransform:
  m_ObjectHideFlags: 0
  m_PrefabParentObject: {fileID: 0}
  m_PrefabInternal: {fileID: 0}
  m_GameObject: {fileID: 1430777945}
  m_LocalRotation: {x: 0, y: 0, z: 0, w: 1}
  m_LocalPosition: {x: 0, y: 0, z: 0}
  m_LocalScale: {x: 1, y: 1, z: 1}
  m_Children:
  - {fileID: 48092802}
  m_Father: {fileID: 1792144032}
  m_RootOrder: 2
  m_AnchorMin: {x: .795000017, y: .899999976}
  m_AnchorMax: {x: 1, y: 1}
  m_AnchoredPosition: {x: 0, y: 0}
  m_SizeDelta: {x: 0, y: 0}
  m_Pivot: {x: .5, y: .5}
--- !u!114 &1430777950
MonoBehaviour:
  m_ObjectHideFlags: 0
  m_PrefabParentObject: {fileID: 0}
  m_PrefabInternal: {fileID: 0}
  m_GameObject: {fileID: 1430777945}
  m_Enabled: 1
  m_EditorHideFlags: 0
  m_Script: {fileID: 11500000, guid: 6603f7dbfce0cc24c9a54636b87175bb, type: 3}
  m_Name: 
  m_EditorClassIdentifier: 
--- !u!1001 &1441182877
Prefab:
  m_ObjectHideFlags: 0
  serializedVersion: 2
  m_Modification:
    m_TransformParent: {fileID: 1792144032}
    m_Modifications:
    - target: {fileID: 400004, guid: d8893a44b67c86a45b0ef2c9bbfc0df0, type: 2}
      propertyPath: m_LocalPosition.x
      value: 0
      objectReference: {fileID: 0}
    - target: {fileID: 400004, guid: d8893a44b67c86a45b0ef2c9bbfc0df0, type: 2}
      propertyPath: m_LocalPosition.y
      value: 0
      objectReference: {fileID: 0}
    - target: {fileID: 400004, guid: d8893a44b67c86a45b0ef2c9bbfc0df0, type: 2}
      propertyPath: m_LocalPosition.z
      value: 0
      objectReference: {fileID: 0}
    - target: {fileID: 400004, guid: d8893a44b67c86a45b0ef2c9bbfc0df0, type: 2}
      propertyPath: m_LocalRotation.x
      value: 0
      objectReference: {fileID: 0}
    - target: {fileID: 400004, guid: d8893a44b67c86a45b0ef2c9bbfc0df0, type: 2}
      propertyPath: m_LocalRotation.y
      value: 0
      objectReference: {fileID: 0}
    - target: {fileID: 400004, guid: d8893a44b67c86a45b0ef2c9bbfc0df0, type: 2}
      propertyPath: m_LocalRotation.z
      value: 0
      objectReference: {fileID: 0}
    - target: {fileID: 400004, guid: d8893a44b67c86a45b0ef2c9bbfc0df0, type: 2}
      propertyPath: m_LocalRotation.w
      value: 1
      objectReference: {fileID: 0}
    - target: {fileID: 400004, guid: d8893a44b67c86a45b0ef2c9bbfc0df0, type: 2}
      propertyPath: m_RootOrder
      value: 0
      objectReference: {fileID: 0}
    - target: {fileID: 11400002, guid: d8893a44b67c86a45b0ef2c9bbfc0df0, type: 2}
      propertyPath: m_Color.r
      value: 1
      objectReference: {fileID: 0}
    - target: {fileID: 11400002, guid: d8893a44b67c86a45b0ef2c9bbfc0df0, type: 2}
      propertyPath: m_Color.g
      value: .855710328
      objectReference: {fileID: 0}
    - target: {fileID: 11400002, guid: d8893a44b67c86a45b0ef2c9bbfc0df0, type: 2}
      propertyPath: m_Color.b
      value: .564705849
      objectReference: {fileID: 0}
    - target: {fileID: 11400000, guid: d8893a44b67c86a45b0ef2c9bbfc0df0, type: 2}
      propertyPath: m_Color.r
      value: 1
      objectReference: {fileID: 0}
    - target: {fileID: 11400000, guid: d8893a44b67c86a45b0ef2c9bbfc0df0, type: 2}
      propertyPath: m_Color.g
      value: 0
      objectReference: {fileID: 0}
    - target: {fileID: 11400000, guid: d8893a44b67c86a45b0ef2c9bbfc0df0, type: 2}
      propertyPath: m_Color.b
      value: 0
      objectReference: {fileID: 0}
    - target: {fileID: 11400006, guid: d8893a44b67c86a45b0ef2c9bbfc0df0, type: 2}
      propertyPath: rotationsPerSecond
      value: .0500000007
      objectReference: {fileID: 0}
    m_RemovedComponents: []
  m_ParentPrefab: {fileID: 100100000, guid: d8893a44b67c86a45b0ef2c9bbfc0df0, type: 2}
  m_RootGameObject: {fileID: 1223448430}
  m_IsPrefabParent: 0
  m_IsExploded: 1
--- !u!1 &1792144031
GameObject:
  m_ObjectHideFlags: 0
  m_PrefabParentObject: {fileID: 0}
  m_PrefabInternal: {fileID: 0}
  serializedVersion: 4
  m_Component:
  - 224: {fileID: 1792144032}
  - 223: {fileID: 1792144034}
  - 114: {fileID: 1792144033}
  m_Layer: 5
  m_Name: Canvas
  m_TagString: Untagged
  m_Icon: {fileID: 0}
  m_NavMeshLayer: 0
  m_StaticEditorFlags: 0
  m_IsActive: 1
--- !u!224 &1792144032
RectTransform:
  m_ObjectHideFlags: 0
  m_PrefabParentObject: {fileID: 0}
  m_PrefabInternal: {fileID: 0}
  m_GameObject: {fileID: 1792144031}
  m_LocalRotation: {x: 0, y: 0, z: 0, w: 1}
  m_LocalPosition: {x: 0, y: 0, z: 0}
  m_LocalScale: {x: 0, y: 0, z: 0}
  m_Children:
  - {fileID: 1223448431}
  - {fileID: 347038142}
  - {fileID: 1430777949}
  - {fileID: 877955797}
  m_Father: {fileID: 0}
  m_RootOrder: 1
  m_AnchorMin: {x: 0, y: 0}
  m_AnchorMax: {x: 0, y: 0}
  m_AnchoredPosition: {x: 0, y: 0}
  m_SizeDelta: {x: 0, y: 0}
  m_Pivot: {x: 0, y: 0}
--- !u!114 &1792144033
MonoBehaviour:
  m_ObjectHideFlags: 0
  m_PrefabParentObject: {fileID: 0}
  m_PrefabInternal: {fileID: 0}
  m_GameObject: {fileID: 1792144031}
  m_Enabled: 1
  m_EditorHideFlags: 0
  m_Script: {fileID: 1301386320, guid: f5f67c52d1564df4a8936ccd202a3bd8, type: 3}
  m_Name: 
  m_EditorClassIdentifier: 
  m_IgnoreReversedGraphics: 1
  m_BlockingObjects: 0
  m_BlockingMask:
    serializedVersion: 2
    m_Bits: 4294967295
--- !u!223 &1792144034
Canvas:
  m_ObjectHideFlags: 0
  m_PrefabParentObject: {fileID: 0}
  m_PrefabInternal: {fileID: 0}
  m_GameObject: {fileID: 1792144031}
  m_Enabled: 1
  serializedVersion: 2
  m_RenderMode: 0
  m_Camera: {fileID: 0}
  m_PlaneDistance: 100
  m_PixelPerfect: 1
  m_ReceivesEvents: 1
  m_OverrideSorting: 0
  m_OverridePixelPerfect: 0
  m_SortingLayerID: 0
  m_SortingOrder: 0
--- !u!1001 &1923765976
Prefab:
  m_ObjectHideFlags: 0
  serializedVersion: 2
  m_Modification:
    m_TransformParent: {fileID: 1792144032}
    m_Modifications:
    - target: {fileID: 22400010, guid: e983179fcec09fc48861bd150162feee, type: 2}
      propertyPath: m_LocalPosition.x
      value: 0
      objectReference: {fileID: 0}
    - target: {fileID: 22400010, guid: e983179fcec09fc48861bd150162feee, type: 2}
      propertyPath: m_LocalPosition.y
      value: 0
      objectReference: {fileID: 0}
    - target: {fileID: 22400010, guid: e983179fcec09fc48861bd150162feee, type: 2}
      propertyPath: m_LocalPosition.z
      value: 0
      objectReference: {fileID: 0}
    - target: {fileID: 22400010, guid: e983179fcec09fc48861bd150162feee, type: 2}
      propertyPath: m_LocalRotation.x
      value: 0
      objectReference: {fileID: 0}
    - target: {fileID: 22400010, guid: e983179fcec09fc48861bd150162feee, type: 2}
      propertyPath: m_LocalRotation.y
      value: 0
      objectReference: {fileID: 0}
    - target: {fileID: 22400010, guid: e983179fcec09fc48861bd150162feee, type: 2}
      propertyPath: m_LocalRotation.z
      value: 0
      objectReference: {fileID: 0}
    - target: {fileID: 22400010, guid: e983179fcec09fc48861bd150162feee, type: 2}
      propertyPath: m_LocalRotation.w
      value: 1
      objectReference: {fileID: 0}
    - target: {fileID: 22400010, guid: e983179fcec09fc48861bd150162feee, type: 2}
      propertyPath: m_RootOrder
      value: 3
      objectReference: {fileID: 0}
    - target: {fileID: 22400010, guid: e983179fcec09fc48861bd150162feee, type: 2}
      propertyPath: m_AnchoredPosition.x
      value: 0
      objectReference: {fileID: 0}
    - target: {fileID: 22400010, guid: e983179fcec09fc48861bd150162feee, type: 2}
      propertyPath: m_AnchoredPosition.y
      value: 0
      objectReference: {fileID: 0}
    - target: {fileID: 22400010, guid: e983179fcec09fc48861bd150162feee, type: 2}
      propertyPath: m_SizeDelta.x
      value: 0
      objectReference: {fileID: 0}
    - target: {fileID: 22400010, guid: e983179fcec09fc48861bd150162feee, type: 2}
      propertyPath: m_SizeDelta.y
      value: 0
      objectReference: {fileID: 0}
    - target: {fileID: 22400010, guid: e983179fcec09fc48861bd150162feee, type: 2}
      propertyPath: m_AnchorMin.x
      value: 0
      objectReference: {fileID: 0}
    - target: {fileID: 22400010, guid: e983179fcec09fc48861bd150162feee, type: 2}
      propertyPath: m_AnchorMin.y
      value: 0
      objectReference: {fileID: 0}
    - target: {fileID: 22400010, guid: e983179fcec09fc48861bd150162feee, type: 2}
      propertyPath: m_AnchorMax.x
      value: 1
      objectReference: {fileID: 0}
    - target: {fileID: 22400010, guid: e983179fcec09fc48861bd150162feee, type: 2}
      propertyPath: m_AnchorMax.y
      value: 1
      objectReference: {fileID: 0}
    - target: {fileID: 22400010, guid: e983179fcec09fc48861bd150162feee, type: 2}
      propertyPath: m_Pivot.x
      value: .5
      objectReference: {fileID: 0}
    - target: {fileID: 22400010, guid: e983179fcec09fc48861bd150162feee, type: 2}
      propertyPath: m_Pivot.y
      value: .5
      objectReference: {fileID: 0}
    m_RemovedComponents: []
  m_ParentPrefab: {fileID: 100100000, guid: e983179fcec09fc48861bd150162feee, type: 2}
  m_RootGameObject: {fileID: 877955796}
  m_IsPrefabParent: 0
  m_IsExploded: 1
--- !u!1 &1956967826
GameObject:
  m_ObjectHideFlags: 0
  m_PrefabParentObject: {fileID: 100000, guid: 452a694c543a4b04583ea27486dd3ad3, type: 2}
  m_PrefabInternal: {fileID: 1394360971}
  serializedVersion: 4
  m_Component:
  - 4: {fileID: 1956967828}
  - 114: {fileID: 1956967827}
  m_Layer: 0
  m_Name: Shop Manager
  m_TagString: Untagged
  m_Icon: {fileID: 0}
  m_NavMeshLayer: 0
  m_StaticEditorFlags: 0
  m_IsActive: 1
--- !u!114 &1956967827
MonoBehaviour:
  m_ObjectHideFlags: 0
  m_PrefabParentObject: {fileID: 11400000, guid: 452a694c543a4b04583ea27486dd3ad3,
    type: 2}
  m_PrefabInternal: {fileID: 1394360971}
  m_GameObject: {fileID: 1956967826}
  m_Enabled: 1
  m_EditorHideFlags: 0
  m_Script: {fileID: 11500000, guid: b5f4124ea0f53984cb73e643a6f588af, type: 3}
  m_Name: 
  m_EditorClassIdentifier: 
  debug: 0
  errorWindow: {fileID: 877955796}
  message: {fileID: 2062981294}
  containers:
  - id: IAP1
    prefab: {fileID: 100036, guid: df169270c64781340a6acb316d725485, type: 2}
    parent: {fileID: 402363981}
--- !u!4 &1956967828
Transform:
  m_ObjectHideFlags: 0
  m_PrefabParentObject: {fileID: 400000, guid: 452a694c543a4b04583ea27486dd3ad3, type: 2}
  m_PrefabInternal: {fileID: 1394360971}
  m_GameObject: {fileID: 1956967826}
  m_LocalRotation: {x: 0, y: 0, z: 0, w: 1}
  m_LocalPosition: {x: 0, y: 0, z: 0}
  m_LocalScale: {x: 1, y: 1, z: 1}
  m_Children: []
  m_Father: {fileID: 0}
  m_RootOrder: 0
--- !u!1 &1997954859
GameObject:
  m_ObjectHideFlags: 0
  m_PrefabParentObject: {fileID: 0}
  m_PrefabInternal: {fileID: 0}
  serializedVersion: 4
  m_Component:
  - 4: {fileID: 1997954863}
  - 114: {fileID: 1997954862}
  - 114: {fileID: 1997954861}
  - 114: {fileID: 1997954860}
  m_Layer: 0
  m_Name: EventSystem
  m_TagString: Untagged
  m_Icon: {fileID: 0}
  m_NavMeshLayer: 0
  m_StaticEditorFlags: 0
  m_IsActive: 1
--- !u!114 &1997954860
MonoBehaviour:
  m_ObjectHideFlags: 0
  m_PrefabParentObject: {fileID: 0}
  m_PrefabInternal: {fileID: 0}
  m_GameObject: {fileID: 1997954859}
  m_Enabled: 1
  m_EditorHideFlags: 0
  m_Script: {fileID: 1997211142, guid: f5f67c52d1564df4a8936ccd202a3bd8, type: 3}
  m_Name: 
  m_EditorClassIdentifier: 
  m_AllowActivationOnStandalone: 0
--- !u!114 &1997954861
MonoBehaviour:
  m_ObjectHideFlags: 0
  m_PrefabParentObject: {fileID: 0}
  m_PrefabInternal: {fileID: 0}
  m_GameObject: {fileID: 1997954859}
  m_Enabled: 1
  m_EditorHideFlags: 0
  m_Script: {fileID: 1077351063, guid: f5f67c52d1564df4a8936ccd202a3bd8, type: 3}
  m_Name: 
  m_EditorClassIdentifier: 
  m_HorizontalAxis: Horizontal
  m_VerticalAxis: Vertical
  m_SubmitButton: Submit
  m_CancelButton: Cancel
  m_InputActionsPerSecond: 10
  m_AllowActivationOnMobileDevice: 0
--- !u!114 &1997954862
MonoBehaviour:
  m_ObjectHideFlags: 0
  m_PrefabParentObject: {fileID: 0}
  m_PrefabInternal: {fileID: 0}
  m_GameObject: {fileID: 1997954859}
  m_Enabled: 1
  m_EditorHideFlags: 0
  m_Script: {fileID: -619905303, guid: f5f67c52d1564df4a8936ccd202a3bd8, type: 3}
  m_Name: 
  m_EditorClassIdentifier: 
  m_FirstSelected: {fileID: 0}
  m_sendNavigationEvents: 1
  m_DragThreshold: 5
--- !u!4 &1997954863
Transform:
  m_ObjectHideFlags: 0
  m_PrefabParentObject: {fileID: 0}
  m_PrefabInternal: {fileID: 0}
  m_GameObject: {fileID: 1997954859}
  m_LocalRotation: {x: 0, y: 0, z: 0, w: 1}
  m_LocalPosition: {x: 0, y: 0, z: 0}
  m_LocalScale: {x: 1, y: 1, z: 1}
  m_Children: []
  m_Father: {fileID: 0}
  m_RootOrder: 2
--- !u!1 &2062981292
GameObject:
  m_ObjectHideFlags: 0
  m_PrefabParentObject: {fileID: 100006, guid: e983179fcec09fc48861bd150162feee, type: 2}
  m_PrefabInternal: {fileID: 1923765976}
  serializedVersion: 4
  m_Component:
  - 224: {fileID: 2062981293}
  - 222: {fileID: 2062981295}
  - 114: {fileID: 2062981294}
  m_Layer: 5
  m_Name: Text
  m_TagString: Untagged
  m_Icon: {fileID: 0}
  m_NavMeshLayer: 0
  m_StaticEditorFlags: 0
  m_IsActive: 1
--- !u!224 &2062981293
RectTransform:
  m_ObjectHideFlags: 0
  m_PrefabParentObject: {fileID: 22400004, guid: e983179fcec09fc48861bd150162feee,
    type: 2}
  m_PrefabInternal: {fileID: 1923765976}
  m_GameObject: {fileID: 2062981292}
  m_LocalRotation: {x: 0, y: 0, z: 0, w: 1}
  m_LocalPosition: {x: 0, y: 0, z: 0}
  m_LocalScale: {x: 1, y: 1, z: 1}
  m_Children: []
  m_Father: {fileID: 386135611}
  m_RootOrder: 0
  m_AnchorMin: {x: 0, y: .300000012}
  m_AnchorMax: {x: 1, y: 1}
  m_AnchoredPosition: {x: 0, y: 0}
  m_SizeDelta: {x: -40, y: -40}
  m_Pivot: {x: .5, y: .5}
--- !u!114 &2062981294
MonoBehaviour:
  m_ObjectHideFlags: 0
  m_PrefabParentObject: {fileID: 11400006, guid: e983179fcec09fc48861bd150162feee,
    type: 2}
  m_PrefabInternal: {fileID: 1923765976}
  m_GameObject: {fileID: 2062981292}
  m_Enabled: 1
  m_EditorHideFlags: 0
  m_Script: {fileID: 708705254, guid: f5f67c52d1564df4a8936ccd202a3bd8, type: 3}
  m_Name: 
  m_EditorClassIdentifier: 
  m_Material: {fileID: 0}
  m_Color: {r: 1, g: 1, b: 1, a: 1}
  m_FontData:
    m_Font: {fileID: 10102, guid: 0000000000000000e000000000000000, type: 0}
    m_FontSize: 18
    m_FontStyle: 1
    m_BestFit: 1
    m_MinSize: 10
    m_MaxSize: 18
    m_Alignment: 4
    m_RichText: 1
    m_HorizontalOverflow: 0
    m_VerticalOverflow: 0
    m_LineSpacing: 1
  m_Text: MESSAGE
--- !u!222 &2062981295
CanvasRenderer:
  m_ObjectHideFlags: 0
  m_PrefabParentObject: {fileID: 22200004, guid: e983179fcec09fc48861bd150162feee,
    type: 2}
  m_PrefabInternal: {fileID: 1923765976}
  m_GameObject: {fileID: 2062981292}
