%YAML 1.1
%TAG !u! tag:unity3d.com,2011:
--- !u!1 &100000
GameObject:
  m_ObjectHideFlags: 0
  m_PrefabParentObject: {fileID: 0}
  m_PrefabInternal: {fileID: 100100000}
  serializedVersion: 4
  m_Component:
  - 4: {fileID: 400000}
  - 114: {fileID: 11400000}
  m_Layer: 0
  m_Name: OftenSpawner
  m_TagString: Untagged
  m_Icon: {fileID: 0}
  m_NavMeshLayer: 0
  m_StaticEditorFlags: 0
  m_IsActive: 1
--- !u!4 &400000
Transform:
  m_ObjectHideFlags: 1
  m_PrefabParentObject: {fileID: 0}
  m_PrefabInternal: {fileID: 100100000}
  m_GameObject: {fileID: 100000}
  m_LocalRotation: {x: 0, y: 0, z: 0, w: 1}
  m_LocalPosition: {x: -1000, y: 10, z: 0}
  m_LocalScale: {x: 1, y: 1, z: 1}
  m_Children: []
  m_Father: {fileID: 0}
  m_RootOrder: 0
--- !u!114 &11400000
MonoBehaviour:
  m_ObjectHideFlags: 1
  m_PrefabParentObject: {fileID: 0}
  m_PrefabInternal: {fileID: 100100000}
  m_GameObject: {fileID: 100000}
  m_Enabled: 1
  m_EditorHideFlags: 0
  m_Script: {fileID: 11500000, guid: b84f788cd282c6344b2c824f60390f3f, type: 3}
  m_Name: 
  m_EditorClassIdentifier: 
  item0:
  - gameObject: {fileID: 100000, guid: c4fd2b7e5f4ab144cb9235c4acd6c4d8, type: 2}
    probability: 0
  - gameObject: {fileID: 100000, guid: 900e53deb398eb2458430290baf8266d, type: 2}
    probability: 0
  - gameObject: {fileID: 100000, guid: 900e53deb398eb2458430290baf8266d, type: 2}
    probability: 0
  - gameObject: {fileID: 100000, guid: c4fd2b7e5f4ab144cb9235c4acd6c4d8, type: 2}
    probability: 0
  - gameObject: {fileID: 100000, guid: 900e53deb398eb2458430290baf8266d, type: 2}
    probability: 0
  - gameObject: {fileID: 0}
    probability: 0
  - gameObject: {fileID: 100000, guid: c4fd2b7e5f4ab144cb9235c4acd6c4d8, type: 2}
    probability: 0
  - gameObject: {fileID: 100000, guid: 900e53deb398eb2458430290baf8266d, type: 2}
    probability: 0
  - gameObject: {fileID: 0}
    probability: 0
  - gameObject: {fileID: 0}
    probability: 0
  - gameObject: {fileID: 100000, guid: c4fd2b7e5f4ab144cb9235c4acd6c4d8, type: 2}
    probability: 0
  - gameObject: {fileID: 100000, guid: 900e53deb398eb2458430290baf8266d, type: 2}
    probability: 0
  - gameObject: {fileID: 100000, guid: c4fd2b7e5f4ab144cb9235c4acd6c4d8, type: 2}
    probability: 0
  - gameObject: {fileID: 0}
    probability: 0
  item1:
  - gameObject: {fileID: 100000, guid: c4fd2b7e5f4ab144cb9235c4acd6c4d8, type: 2}
    probability: 0
  - gameObject: {fileID: 0}
    probability: 0
  - gameObject: {fileID: 0}
    probability: 0
  - gameObject: {fileID: 100000, guid: 900e53deb398eb2458430290baf8266d, type: 2}
    probability: 0
  - gameObject: {fileID: 0}
    probability: 0
  - gameObject: {fileID: 100000, guid: c4fd2b7e5f4ab144cb9235c4acd6c4d8, type: 2}
    probability: 0
  - gameObject: {fileID: 0}
    probability: 0
  - gameObject: {fileID: 100000, guid: 900e53deb398eb2458430290baf8266d, type: 2}
    probability: 0
  - gameObject: {fileID: 0}
    probability: 0
  - gameObject: {fileID: 0}
    probability: 0
  item2:
  - gameObject: {fileID: 100000, guid: c4fd2b7e5f4ab144cb9235c4acd6c4d8, type: 2}
    probability: 0
  - gameObject: {fileID: 0}
    probability: 0
  - gameObject: {fileID: 0}
    probability: 0
  - gameObject: {fileID: 0}
    probability: 0
  - gameObject: {fileID: 0}
    probability: 0
  - gameObject: {fileID: 100000, guid: 900e53deb398eb2458430290baf8266d, type: 2}
    probability: 0
  - gameObject: {fileID: 0}
    probability: 0
  - gameObject: {fileID: 0}
    probability: 0
  - gameObject: {fileID: 100000, guid: c4fd2b7e5f4ab144cb9235c4acd6c4d8, type: 2}
    probability: 0
  - gameObject: {fileID: 0}
    probability: 0
  - gameObject: {fileID: 0}
    probability: 0
  - gameObject: {fileID: 0}
    probability: 0
  - gameObject: {fileID: 100000, guid: 900e53deb398eb2458430290baf8266d, type: 2}
    probability: 0
  - gameObject: {fileID: 0}
    probability: 0
  - gameObject: {fileID: 0}
    probability: 0
--- !u!1001 &100100000
Prefab:
  m_ObjectHideFlags: 1
  serializedVersion: 2
  m_Modification:
    m_TransformParent: {fileID: 0}
    m_Modifications: []
    m_RemovedComponents: []
  m_ParentPrefab: {fileID: 0}
  m_RootGameObject: {fileID: 100000}
  m_IsPrefabParent: 1
  m_IsExploded: 1
