%YAML 1.1
%TAG !u! tag:unity3d.com,2011:
--- !u!74 &7400000
AnimationClip:
  m_ObjectHideFlags: 0
  m_PrefabParentObject: {fileID: 0}
  m_PrefabInternal: {fileID: 0}
  m_Name: grass2
  serializedVersion: 4
  m_AnimationType: 2
  m_Compressed: 0
  m_UseHighQualityCurve: 1
  m_RotationCurves: []
  m_CompressedRotationCurves: []
  m_PositionCurves: []
  m_ScaleCurves: []
  m_FloatCurves: []
  m_PPtrCurves:
  - curve:
    - time: 0
      value: {fileID: 21300000, guid: d99642ca6b17eb54fa951e98aa73c70d, type: 3}
    - time: .0833333358
      value: {fileID: 21300000, guid: af1c5f7f544410949938db91ad03cffa, type: 3}
    - time: .166666672
      value: {fileID: 21300000, guid: 83e6f1940df78de43a37aeb8c27668d1, type: 3}
    - time: .25
      value: {fileID: 21300000, guid: 5949ce09ed66c3d43ac7840b273e8639, type: 3}
    - time: .333333343
      value: {fileID: 21300000, guid: 91f217fe3e3788e4fa04c3cc8028a00e, type: 3}
    - time: .416666657
      value: {fileID: 21300000, guid: 0d9585d6eea299d4ca5652256988611f, type: 3}
    - time: .5
      value: {fileID: 21300000, guid: 8630bb32482182942857fc79c3b21e78, type: 3}
    - time: .583333313
      value: {fileID: 21300000, guid: 82dde9fc5518f6649952dc5105c04e63, type: 3}
    - time: .666666687
      value: {fileID: 21300000, guid: d2c4de2c8e48f7047a2f4b7b0147df99, type: 3}
    - time: .75
      value: {fileID: 21300000, guid: 52c81882d6d41e64f922417e96c411b2, type: 3}
    attribute: m_Sprite
    path: 
    classID: 212
    script: {fileID: 0}
  m_SampleRate: 12
  m_WrapMode: 0
  m_Bounds:
    m_Center: {x: 0, y: 0, z: 0}
    m_Extent: {x: 0, y: 0, z: 0}
  m_ClipBindingConstant:
    genericBindings:
    - path: 0
      attribute: 0
      script: {fileID: 0}
      classID: 212
      customType: 23
      isPPtrCurve: 1
    pptrCurveMapping:
    - {fileID: 21300000, guid: d99642ca6b17eb54fa951e98aa73c70d, type: 3}
    - {fileID: 21300000, guid: af1c5f7f544410949938db91ad03cffa, type: 3}
    - {fileID: 21300000, guid: 83e6f1940df78de43a37aeb8c27668d1, type: 3}
    - {fileID: 21300000, guid: 5949ce09ed66c3d43ac7840b273e8639, type: 3}
    - {fileID: 21300000, guid: 91f217fe3e3788e4fa04c3cc8028a00e, type: 3}
    - {fileID: 21300000, guid: 0d9585d6eea299d4ca5652256988611f, type: 3}
    - {fileID: 21300000, guid: 8630bb32482182942857fc79c3b21e78, type: 3}
    - {fileID: 21300000, guid: 82dde9fc5518f6649952dc5105c04e63, type: 3}
    - {fileID: 21300000, guid: d2c4de2c8e48f7047a2f4b7b0147df99, type: 3}
    - {fileID: 21300000, guid: 52c81882d6d41e64f922417e96c411b2, type: 3}
  m_AnimationClipSettings:
    serializedVersion: 2
    m_StartTime: 0
    m_StopTime: .833333313
    m_OrientationOffsetY: 0
    m_Level: 0
    m_CycleOffset: 0
    m_LoopTime: 1
    m_LoopBlend: 0
    m_LoopBlendOrientation: 0
    m_LoopBlendPositionY: 0
    m_LoopBlendPositionXZ: 0
    m_KeepOriginalOrientation: 0
    m_KeepOriginalPositionY: 1
    m_KeepOriginalPositionXZ: 0
    m_HeightFromFeet: 0
    m_Mirror: 0
  m_EditorCurves: []
  m_EulerEditorCurves: []
  m_Events: []
