%YAML 1.1
%TAG !u! tag:unity3d.com,2011:
--- !u!129 &1
PlayerSettings:
  m_ObjectHideFlags: 0
  serializedVersion: 3
  AndroidProfiler: 0
  defaultScreenOrientation: 2
  targetDevice: 0
  targetGlesGraphics: 1
  targetIOSGraphics: -1
  targetResolution: 0
  accelerometerFrequency: 60
  companyName: Dagon Studios
  productName: 'Cthulhu v Santa Claus: War on Christmas'
  defaultCursor: {fileID: 0}
  cursorHotspot: {x: 0, y: 0}
  defaultScreenWidth: 1024
  defaultScreenHeight: 768
  defaultScreenWidthWeb: 960
  defaultScreenHeightWeb: 600
  m_RenderingPath: 2
  m_MobileRenderingPath: 1
  m_ActiveColorSpace: 0
  m_MTRendering: 1
  m_MobileMTRendering: 0
  m_UseDX11: 1
  m_Stereoscopic3D: 0
  iosShowActivityIndicatorOnLoading: -1
  androidShowActivityIndicatorOnLoading: -1
  displayResolutionDialog: 1
  allowedAutorotateToPortrait: 1
  allowedAutorotateToPortraitUpsideDown: 1
  allowedAutorotateToLandscapeRight: 1
  allowedAutorotateToLandscapeLeft: 1
  useOSAutorotation: 1
  use32BitDisplayBuffer: 1
  use24BitDepthBuffer: 1
  defaultIsFullScreen: 1
  defaultIsNativeResolution: 1
  runInBackground: 1
  captureSingleScreen: 0
  Override IPod Music: 0
  Prepare IOS For Recording: 0
  enableHWStatistics: 1
  usePlayerLog: 1
  stripPhysics: 0
  forceSingleInstance: 0
  resizableWindow: 0
  useMacAppStoreValidation: 0
  gpuSkinning: 0
  xboxPIXTextureCapture: 0
  xboxEnableAvatar: 0
  xboxEnableKinect: 0
  xboxEnableKinectAutoTracking: 0
  xboxEnableFitness: 0
  visibleInBackground: 0
  macFullscreenMode: 2
  d3d9FullscreenMode: 1
  d3d11ForceExclusiveMode: 0
  xboxSpeechDB: 0
  xboxEnableHeadOrientation: 0
  xboxEnableGuest: 0
  videoMemoryForVertexBuffers: 0
  m_SupportedAspectRatios:
    4:3: 0
    5:4: 0
    16:10: 0
    16:9: 1
    Others: 0
  iPhoneBundleIdentifier: com.DagonStudios.Cthulu
  metroEnableIndependentInputSource: 0
  metroEnableLowLatencyPresentationAPI: 0
  productGUID: 3a8984573b6d44decadf1ac29eacc6ec
  iPhoneBundleVersion: 1.0
  iPhoneShortBundleVersion: 1.0
  AndroidBundleVersionCode: 8
  AndroidMinSdkVersion: 16
  AndroidPreferredInstallLocation: 1
  aotOptions: 
  apiCompatibilityLevel: 2
  iPhoneStrippingLevel: 0
  iPhoneScriptCallOptimization: 0
  ForceInternetPermission: 0
  ForceSDCardPermission: 0
  CreateWallpaper: 0
  APKExpansionFiles: 0
  StripUnusedMeshComponents: 1
  iPhoneSdkVersion: 988
  iPhoneTargetOSVersion: 30
  uIPrerenderedIcon: 0
  uIRequiresPersistentWiFi: 0
  uIStatusBarHidden: 1
  uIExitOnSuspend: 0
  uIStatusBarStyle: 0
  iPhoneSplashScreen: {fileID: 2800000, guid: ca2fd313b791d0c47a949744f3010ebd, type: 3}
  iPhoneHighResSplashScreen: {fileID: 2800000, guid: ca2fd313b791d0c47a949744f3010ebd,
    type: 3}
  iPhoneTallHighResSplashScreen: {fileID: 2800000, guid: ca2fd313b791d0c47a949744f3010ebd,
    type: 3}
  iPhone47inSplashScreen: {fileID: 2800000, guid: ca2fd313b791d0c47a949744f3010ebd,
    type: 3}
  iPhone55inPortraitSplashScreen: {fileID: 2800000, guid: ca2fd313b791d0c47a949744f3010ebd,
    type: 3}
  iPhone55inLandscapeSplashScreen: {fileID: 2800000, guid: ca2fd313b791d0c47a949744f3010ebd,
    type: 3}
  iPadPortraitSplashScreen: {fileID: 2800000, guid: ca2fd313b791d0c47a949744f3010ebd,
    type: 3}
  iPadHighResPortraitSplashScreen: {fileID: 2800000, guid: ca2fd313b791d0c47a949744f3010ebd,
    type: 3}
  iPadLandscapeSplashScreen: {fileID: 2800000, guid: ca2fd313b791d0c47a949744f3010ebd,
    type: 3}
  iPadHighResLandscapeSplashScreen: {fileID: 2800000, guid: ca2fd313b791d0c47a949744f3010ebd,
    type: 3}
  iOSLaunchScreenType: 0
  iOSLaunchScreenPortrait: {fileID: 0}
  iOSLaunchScreenLandscape: {fileID: 0}
  iOSLaunchScreenBackgroundColor:
    serializedVersion: 2
    rgba: 4284377428
  iOSLaunchScreenFillPct: 100
  iOSLaunchScreenSize: 100
  iOSLaunchScreenCustomXibPath: 
  AndroidTargetDevice: 0
  AndroidSplashScreenScale: 2
  AndroidKeystoreName: C:/Users/Gabriel/Google Drive/Security key/CthulhuVSanta/Dagon.keystore
  AndroidKeyaliasName: gabriel
  resolutionDialogBanner: {fileID: 2800000, guid: 40cda8f1200241444ae7a0ace847a41e,
    type: 3}
  m_BuildTargetIcons:
  - m_BuildTarget: 
    m_Icons:
    - m_Icon: {fileID: 2800000, guid: 069ed58b4fd452b428ac112e47b9fd6f, type: 3}
      m_Size: 128
  m_BuildTargetBatching:
  - m_BuildTarget: Android
    m_StaticBatching: 1
    m_DynamicBatching: 1
  - m_BuildTarget: Standalone
    m_StaticBatching: 1
    m_DynamicBatching: 1
  - m_BuildTarget: Web
    m_StaticBatching: 0
    m_DynamicBatching: 1
  - m_BuildTarget: iPhone
    m_StaticBatching: 1
    m_DynamicBatching: 1
  webPlayerTemplate: APPLICATION:Default
  m_TemplateCustomTags: {}
  locationUsageDescription: 
  XboxTitleId: 
  XboxImageXexPath: 
  XboxSpaPath: 
  XboxGenerateSpa: 0
  XboxDeployKinectResources: 0
  XboxSplashScreen: {fileID: 0}
  xboxEnableSpeech: 0
  xboxAdditionalTitleMemorySize: 0
  xboxDeployKinectHeadOrientation: 0
  xboxDeployKinectHeadPosition: 0
  ps3TitleConfigPath: 
  ps3DLCConfigPath: 
  ps3ThumbnailPath: 
  ps3BackgroundPath: 
  ps3SoundPath: 
  ps3TrophyCommId: 
  ps3NpCommunicationPassphrase: 
  ps3TrophyPackagePath: 
  ps3BootCheckMaxSaveGameSizeKB: 128
  ps3TrophyCommSig: 
  ps3SaveGameSlots: 1
  ps3TrialMode: 0
  psp2Splashimage: {fileID: 0}
  psp2LiveAreaGate: {fileID: 0}
  psp2LiveAreaBackround: {fileID: 0}
  psp2NPTrophyPackPath: 
  psp2NPCommsID: 
  psp2NPCommsPassphrase: 
  psp2NPCommsSig: 
  psp2ParamSfxPath: 
  psp2PackagePassword: yapnxrpMCARCr4zdGc81tBDKsMlaZTXC
  psp2DLCConfigPath: 
  psp2ThumbnailPath: 
  psp2BackgroundPath: 
  psp2SoundPath: 
  psp2TrophyCommId: 
  psp2TrophyPackagePath: 
  psp2PackagedResourcesPath: 
  flashStrippingLevel: 2
  spritePackerPolicy: DefaultPackerPolicy
  scriptingDefineSymbols: {}
  metroPackageName: _2D v3
  metroPackageLogo: 
  metroPackageLogo140: 
  metroPackageLogo180: 
  metroPackageLogo240: 
  metroPackageVersion: 
  metroCertificatePath: 
  metroCertificatePassword: 
  metroCertificateSubject: 
  metroCertificateIssuer: 
  metroCertificateNotAfter: 0000000000000000
  metroApplicationDescription: _2D v3
  metroStoreTileLogo80: 
  metroStoreTileLogo: 
  metroStoreTileLogo140: 
  metroStoreTileLogo180: 
  metroStoreTileWideLogo80: 
  metroStoreTileWideLogo: 
  metroStoreTileWideLogo140: 
  metroStoreTileWideLogo180: 
  metroStoreTileSmallLogo80: 
  metroStoreTileSmallLogo: 
  metroStoreTileSmallLogo140: 
  metroStoreTileSmallLogo180: 
  metroStoreSmallTile80: 
  metroStoreSmallTile: 
  metroStoreSmallTile140: 
  metroStoreSmallTile180: 
  metroStoreLargeTile80: 
  metroStoreLargeTile: 
  metroStoreLargeTile140: 
  metroStoreLargeTile180: 
  metroStoreSplashScreenImage: 
  metroStoreSplashScreenImage140: 
  metroStoreSplashScreenImage180: 
  metroPhoneAppIcon: 
  metroPhoneAppIcon140: 
  metroPhoneAppIcon240: 
  metroPhoneSmallTile: 
  metroPhoneSmallTile140: 
  metroPhoneSmallTile240: 
  metroPhoneMediumTile: 
  metroPhoneMediumTile140: 
  metroPhoneMediumTile240: 
  metroPhoneWideTile: 
  metroPhoneWideTile140: 
  metroPhoneWideTile240: 
  metroPhoneSplashScreenImage: 
  metroPhoneSplashScreenImage140: 
  metroPhoneSplashScreenImage240: 
  metroTileShortName: 
  metroCommandLineArgsFile: 
  metroTileShowName: 1
  metroMediumTileShowName: 0
  metroLargeTileShowName: 0
  metroWideTileShowName: 0
  metroDefaultTileSize: 1
  metroTileForegroundText: 1
  metroTileBackgroundColor: {r: 0, g: 0, b: 0, a: 1}
  metroSplashScreenBackgroundColor: {r: 0, g: 0, b: 0, a: 1}
  metroSplashScreenUseBackgroundColor: 0
  metroCapabilities: {}
  metroUnprocessedPlugins: []
  metroCompilationOverrides: 1
  blackberryDeviceAddress: 
  blackberryDevicePassword: 
  blackberryTokenPath: 
  blackberryTokenExires: 
  blackberryTokenAuthor: 
  blackberryTokenAuthorId: 
  blackberryAuthorId: 
  blackberryCskPassword: 
  blackberrySaveLogPath: 
  blackberryAuthorIdOveride: 0
  blackberrySharedPermissions: 0
  blackberryCameraPermissions: 0
  blackberryGPSPermissions: 0
  blackberryDeviceIDPermissions: 0
  blackberryMicrophonePermissions: 0
  blackberryGamepadSupport: 0
  blackberryBuildId: 0
  blackberryLandscapeSplashScreen: {fileID: 0}
  blackberryPortraitSplashScreen: {fileID: 0}
  blackberrySquareSplashScreen: {fileID: 0}
  tizenProductDescription: 
  tizenProductURL: 
  tizenCertificatePath: 
  tizenCertificatePassword: 
  tizenGPSPermissions: 0
  tizenMicrophonePermissions: 0
  stvDeviceAddress: 
  wp8UnprocessedPlugins: []
  intPropertyNames:
  - Android::ScriptingBackend
  - Metro::ScriptingBackend
  - Standalone::ScriptingBackend
  - WP8::ScriptingBackend
  - WebGL::ScriptingBackend
  - WebGL::audioCompressionFormat
  - WebGL::exceptionSupport
  - WebGL::memorySize
  - iOS::Architecture
  - iOS::EnableIncrementalBuildSupportForIl2cpp
  - iOS::ScriptingBackend
  Android::ScriptingBackend: 0
  Metro::ScriptingBackend: 2
  Standalone::ScriptingBackend: 0
  WP8::ScriptingBackend: 2
  WebGL::ScriptingBackend: 1
  WebGL::audioCompressionFormat: 4
  WebGL::exceptionSupport: 1
  WebGL::memorySize: 256
  iOS::Architecture: 2
  iOS::EnableIncrementalBuildSupportForIl2cpp: 0
  iOS::ScriptingBackend: 1
  firstStreamedLevelWithResources: 0
  unityRebuildLibraryVersion: 9
  unityForwardCompatibleVersion: 39
  unityStandardAssetsVersion: 0
