%YAML 1.1
%TAG !u! tag:unity3d.com,2011:
--- !u!78 &1
TagManager:
  tags:
  - Ground
  - Crate
  - Enemy
  - Wall
  - Obstacle
  - Rocket
  - Gift
  - Laser
  - GUICamera
  - GameManager
  - ExplosionFX
  - Coin
  - ground
  - Bomb
  - CravedCave
  - Pause
  - UI_Resume
  - Previous
  - Next
  - DestroyCoins
  - Ponto
  - Bla
  - Destroy
  - AAh
  - 
  Builtin Layer 0: Default
  Builtin Layer 1: TransparentFX
  Builtin Layer 2: Ignore Raycast
  Builtin Layer 3: 
  Builtin Layer 4: Water
  Builtin Layer 5: UI
  Builtin Layer 6: 
  Builtin Layer 7: 
  User Layer 8: Bombs
  User Layer 9: Player
  User Layer 10: Enemies
  User Layer 11: Pickups
  User Layer 12: Ground
  User Layer 13: GUI
  User Layer 14: Destroyable
  User Layer 15: IgnoreCollision
  User Layer 16: Liquid
  User Layer 17: Anti
  User Layer 18: Ponto
  User Layer 19: 
  User Layer 20: 
  User Layer 21: 
  User Layer 22: 
  User Layer 23: 
  User Layer 24: 
  User Layer 25: 
  User Layer 26: 
  User Layer 27: 
  User Layer 28: 
  User Layer 29: 
  User Layer 30: 
  User Layer 31: 
  m_SortingLayers:
  - name: Default
    userID: 1
    uniqueID: 3363470833
    locked: 0
  - name: ParallaxBackground
    userID: 6
    uniqueID: 1066335329
    locked: 0
  - name: Background
    userID: 2
    uniqueID: 1535931219
    locked: 0
  - name: Default
    userID: 0
    uniqueID: 0
    locked: 0
  - name: Character
    userID: 4
    uniqueID: 2511236001
    locked: 0
  - name: Foreground
    userID: 3
    uniqueID: 1024582385
    locked: 0
  - name: FirstPlane
    userID: 7
    uniqueID: 2834092723
    locked: 0
  - name: UI
    userID: 5
    uniqueID: 149272721
    locked: 0
  - name: Loading
    userID: 8
    uniqueID: 644396647
    locked: 0
