%YAML 1.1
%TAG !u! tag:unity3d.com,2011:
--- !u!74 &7400000
AnimationClip:
  m_ObjectHideFlags: 0
  m_PrefabParentObject: {fileID: 0}
  m_PrefabInternal: {fileID: 0}
  m_Name: BackGroundEstrela
  serializedVersion: 4
  m_AnimationType: 2
  m_Compressed: 0
  m_UseHighQualityCurve: 1
  m_RotationCurves: []
  m_CompressedRotationCurves: []
  m_PositionCurves: []
  m_ScaleCurves: []
  m_FloatCurves: []
  m_PPtrCurves:
  - curve:
    - time: 0
      value: {fileID: 21300000, guid: aba9c27bb25de82438def95eef7ca1d6, type: 3}
    - time: .0833333358
      value: {fileID: 21300000, guid: 9612fba0caee92b4581f91d82eaa6ec9, type: 3}
    - time: .166666672
      value: {fileID: 21300000, guid: d46df7a4a55b92744902a9cde4916f70, type: 3}
    - time: .25
      value: {fileID: 21300000, guid: cf7fe62c9943c2348a9cd1d09a353728, type: 3}
    - time: .333333343
      value: {fileID: 21300000, guid: 15709a0d27250dd4ebf0639cdafa2af4, type: 3}
    - time: .416666657
      value: {fileID: 21300000, guid: 12dde9f7a7676ec4ab7f45e0a1979292, type: 3}
    - time: .5
      value: {fileID: 21300000, guid: 540d8dc859dbbfb41aa2b72c2ddf0864, type: 3}
    - time: .583333313
      value: {fileID: 21300000, guid: df490a27d239bfd44997af38d51b33c8, type: 3}
    - time: .666666687
      value: {fileID: 21300000, guid: e3d538f2d63702246a4f3c040cbc9afc, type: 3}
    - time: .75
      value: {fileID: 21300000, guid: 0431fb702577fe44fac92489c76f716d, type: 3}
    - time: .833333313
      value: {fileID: 21300000, guid: 764ced0f379f0544999fce1d54934927, type: 3}
    - time: .916666687
      value: {fileID: 21300000, guid: 698f31c5e6e5b874d93698c2647d5382, type: 3}
    - time: 1
      value: {fileID: 21300000, guid: e4eed8dfb04be9441bab8b8361959eae, type: 3}
    - time: 1.08333337
      value: {fileID: 21300000, guid: 294f6a04505245842b1c8fcad332438f, type: 3}
    - time: 1.16666663
      value: {fileID: 21300000, guid: e19b07f45fb136b4e943ff47b4746df7, type: 3}
    - time: 1.25
      value: {fileID: 21300000, guid: 9c2d338cbfaec614095ddaba798e377f, type: 3}
    - time: 1.33333337
      value: {fileID: 21300000, guid: 15c86c5d45499c74bb6b764d6962da6f, type: 3}
    - time: 1.41666663
      value: {fileID: 21300000, guid: 46af74eaa58847f439301926ad920e07, type: 3}
    - time: 1.5
      value: {fileID: 21300000, guid: c4ebfb8b2fa7760479134967776dade2, type: 3}
    - time: 1.58333337
      value: {fileID: 21300000, guid: 46af74eaa58847f439301926ad920e07, type: 3}
    - time: 1.66666663
      value: {fileID: 21300000, guid: 15c86c5d45499c74bb6b764d6962da6f, type: 3}
    - time: 1.75
      value: {fileID: 21300000, guid: 9c2d338cbfaec614095ddaba798e377f, type: 3}
    - time: 1.83333337
      value: {fileID: 21300000, guid: e19b07f45fb136b4e943ff47b4746df7, type: 3}
    - time: 1.91666663
      value: {fileID: 21300000, guid: 294f6a04505245842b1c8fcad332438f, type: 3}
    - time: 2
      value: {fileID: 21300000, guid: e4eed8dfb04be9441bab8b8361959eae, type: 3}
    - time: 2.08333325
      value: {fileID: 21300000, guid: 698f31c5e6e5b874d93698c2647d5382, type: 3}
    - time: 2.16666675
      value: {fileID: 21300000, guid: 764ced0f379f0544999fce1d54934927, type: 3}
    - time: 2.25
      value: {fileID: 21300000, guid: 0431fb702577fe44fac92489c76f716d, type: 3}
    - time: 2.33333325
      value: {fileID: 21300000, guid: e3d538f2d63702246a4f3c040cbc9afc, type: 3}
    - time: 2.41666675
      value: {fileID: 21300000, guid: df490a27d239bfd44997af38d51b33c8, type: 3}
    - time: 2.5
      value: {fileID: 21300000, guid: 540d8dc859dbbfb41aa2b72c2ddf0864, type: 3}
    - time: 2.58333325
      value: {fileID: 21300000, guid: 12dde9f7a7676ec4ab7f45e0a1979292, type: 3}
    - time: 2.66666675
      value: {fileID: 21300000, guid: 15709a0d27250dd4ebf0639cdafa2af4, type: 3}
    - time: 2.75
      value: {fileID: 21300000, guid: cf7fe62c9943c2348a9cd1d09a353728, type: 3}
    - time: 2.83333325
      value: {fileID: 21300000, guid: d46df7a4a55b92744902a9cde4916f70, type: 3}
    - time: 2.91666675
      value: {fileID: 21300000, guid: 9612fba0caee92b4581f91d82eaa6ec9, type: 3}
    - time: 3
      value: {fileID: 21300000, guid: aba9c27bb25de82438def95eef7ca1d6, type: 3}
    attribute: m_Sprite
    path: 
    classID: 212
    script: {fileID: 0}
  m_SampleRate: 12
  m_WrapMode: 0
  m_Bounds:
    m_Center: {x: 0, y: 0, z: 0}
    m_Extent: {x: 0, y: 0, z: 0}
  m_ClipBindingConstant:
    genericBindings:
    - path: 0
      attribute: 0
      script: {fileID: 0}
      classID: 212
      customType: 23
      isPPtrCurve: 1
    pptrCurveMapping:
    - {fileID: 21300000, guid: aba9c27bb25de82438def95eef7ca1d6, type: 3}
    - {fileID: 21300000, guid: 9612fba0caee92b4581f91d82eaa6ec9, type: 3}
    - {fileID: 21300000, guid: d46df7a4a55b92744902a9cde4916f70, type: 3}
    - {fileID: 21300000, guid: cf7fe62c9943c2348a9cd1d09a353728, type: 3}
    - {fileID: 21300000, guid: 15709a0d27250dd4ebf0639cdafa2af4, type: 3}
    - {fileID: 21300000, guid: 12dde9f7a7676ec4ab7f45e0a1979292, type: 3}
    - {fileID: 21300000, guid: 540d8dc859dbbfb41aa2b72c2ddf0864, type: 3}
    - {fileID: 21300000, guid: df490a27d239bfd44997af38d51b33c8, type: 3}
    - {fileID: 21300000, guid: e3d538f2d63702246a4f3c040cbc9afc, type: 3}
    - {fileID: 21300000, guid: 0431fb702577fe44fac92489c76f716d, type: 3}
    - {fileID: 21300000, guid: 764ced0f379f0544999fce1d54934927, type: 3}
    - {fileID: 21300000, guid: 698f31c5e6e5b874d93698c2647d5382, type: 3}
    - {fileID: 21300000, guid: e4eed8dfb04be9441bab8b8361959eae, type: 3}
    - {fileID: 21300000, guid: 294f6a04505245842b1c8fcad332438f, type: 3}
    - {fileID: 21300000, guid: e19b07f45fb136b4e943ff47b4746df7, type: 3}
    - {fileID: 21300000, guid: 9c2d338cbfaec614095ddaba798e377f, type: 3}
    - {fileID: 21300000, guid: 15c86c5d45499c74bb6b764d6962da6f, type: 3}
    - {fileID: 21300000, guid: 46af74eaa58847f439301926ad920e07, type: 3}
    - {fileID: 21300000, guid: c4ebfb8b2fa7760479134967776dade2, type: 3}
    - {fileID: 21300000, guid: 46af74eaa58847f439301926ad920e07, type: 3}
    - {fileID: 21300000, guid: 15c86c5d45499c74bb6b764d6962da6f, type: 3}
    - {fileID: 21300000, guid: 9c2d338cbfaec614095ddaba798e377f, type: 3}
    - {fileID: 21300000, guid: e19b07f45fb136b4e943ff47b4746df7, type: 3}
    - {fileID: 21300000, guid: 294f6a04505245842b1c8fcad332438f, type: 3}
    - {fileID: 21300000, guid: e4eed8dfb04be9441bab8b8361959eae, type: 3}
    - {fileID: 21300000, guid: 698f31c5e6e5b874d93698c2647d5382, type: 3}
    - {fileID: 21300000, guid: 764ced0f379f0544999fce1d54934927, type: 3}
    - {fileID: 21300000, guid: 0431fb702577fe44fac92489c76f716d, type: 3}
    - {fileID: 21300000, guid: e3d538f2d63702246a4f3c040cbc9afc, type: 3}
    - {fileID: 21300000, guid: df490a27d239bfd44997af38d51b33c8, type: 3}
    - {fileID: 21300000, guid: 540d8dc859dbbfb41aa2b72c2ddf0864, type: 3}
    - {fileID: 21300000, guid: 12dde9f7a7676ec4ab7f45e0a1979292, type: 3}
    - {fileID: 21300000, guid: 15709a0d27250dd4ebf0639cdafa2af4, type: 3}
    - {fileID: 21300000, guid: cf7fe62c9943c2348a9cd1d09a353728, type: 3}
    - {fileID: 21300000, guid: d46df7a4a55b92744902a9cde4916f70, type: 3}
    - {fileID: 21300000, guid: 9612fba0caee92b4581f91d82eaa6ec9, type: 3}
    - {fileID: 21300000, guid: aba9c27bb25de82438def95eef7ca1d6, type: 3}
  m_AnimationClipSettings:
    serializedVersion: 2
    m_StartTime: 0
    m_StopTime: 3.08333325
    m_OrientationOffsetY: 0
    m_Level: 0
    m_CycleOffset: 0
    m_LoopTime: 1
    m_LoopBlend: 0
    m_LoopBlendOrientation: 0
    m_LoopBlendPositionY: 0
    m_LoopBlendPositionXZ: 0
    m_KeepOriginalOrientation: 0
    m_KeepOriginalPositionY: 1
    m_KeepOriginalPositionXZ: 0
    m_HeightFromFeet: 0
    m_Mirror: 0
  m_EditorCurves: []
  m_EulerEditorCurves: []
  m_Events: []
