%YAML 1.1
%TAG !u! tag:unity3d.com,2011:
--- !u!74 &7400000
AnimationClip:
  m_ObjectHideFlags: 0
  m_PrefabParentObject: {fileID: 0}
  m_PrefabInternal: {fileID: 0}
  m_Name: asajump
  serializedVersion: 4
  m_AnimationType: 2
  m_Compressed: 0
  m_UseHighQualityCurve: 1
  m_RotationCurves: []
  m_CompressedRotationCurves: []
  m_PositionCurves: []
  m_ScaleCurves: []
  m_FloatCurves: []
  m_PPtrCurves:
  - curve:
    - time: .000416666648
      value: {fileID: 21300000, guid: ea5cc7c8d4461644bb74ec13c8ab2610, type: 3}
    - time: .0416666679
      value: {fileID: 21300000, guid: aac39f403f634ba46809ac9d7eae8780, type: 3}
    - time: .0833333358
      value: {fileID: 21300000, guid: 8a4306af9daf1d44a8ba36c541d762ff, type: 3}
    - time: .125
      value: {fileID: 21300000, guid: 542f97561a33ce94c9ee39c2257d288c, type: 3}
    - time: .166666672
      value: {fileID: 21300000, guid: 02abe78c12be3b147a5d35e5c15e8432, type: 3}
    attribute: m_Sprite
    path: 
    classID: 212
    script: {fileID: 0}
  m_SampleRate: 24
  m_WrapMode: 0
  m_Bounds:
    m_Center: {x: 0, y: 0, z: 0}
    m_Extent: {x: 0, y: 0, z: 0}
  m_ClipBindingConstant:
    genericBindings:
    - path: 0
      attribute: 0
      script: {fileID: 0}
      classID: 212
      customType: 23
      isPPtrCurve: 1
    pptrCurveMapping:
    - {fileID: 21300000, guid: ea5cc7c8d4461644bb74ec13c8ab2610, type: 3}
    - {fileID: 21300000, guid: aac39f403f634ba46809ac9d7eae8780, type: 3}
    - {fileID: 21300000, guid: 8a4306af9daf1d44a8ba36c541d762ff, type: 3}
    - {fileID: 21300000, guid: 542f97561a33ce94c9ee39c2257d288c, type: 3}
    - {fileID: 21300000, guid: 02abe78c12be3b147a5d35e5c15e8432, type: 3}
  m_AnimationClipSettings:
    serializedVersion: 2
    m_StartTime: 0
    m_StopTime: .208333343
    m_OrientationOffsetY: 0
    m_Level: 0
    m_CycleOffset: 0
    m_LoopTime: 1
    m_LoopBlend: 0
    m_LoopBlendOrientation: 0
    m_LoopBlendPositionY: 0
    m_LoopBlendPositionXZ: 0
    m_KeepOriginalOrientation: 0
    m_KeepOriginalPositionY: 1
    m_KeepOriginalPositionXZ: 0
    m_HeightFromFeet: 0
    m_Mirror: 0
  m_EditorCurves: []
  m_EulerEditorCurves: []
  m_Events: []
