%YAML 1.1
%TAG !u! tag:unity3d.com,2011:
--- !u!74 &7400000
AnimationClip:
  m_ObjectHideFlags: 0
  m_PrefabParentObject: {fileID: 0}
  m_PrefabInternal: {fileID: 0}
  m_Name: egypt3
  serializedVersion: 4
  m_AnimationType: 2
  m_Compressed: 0
  m_UseHighQualityCurve: 1
  m_RotationCurves: []
  m_CompressedRotationCurves: []
  m_PositionCurves:
  - curve:
      serializedVersion: 2
      m_Curve:
      - time: 0
        value: {x: -13.5500002, y: 5.59200001, z: 48.375}
        inSlope: {x: -.752094507, y: 0, z: 0}
        outSlope: {x: -.752094507, y: 0, z: 0}
        tangentMode: 0
      - time: 47.9833336
        value: {x: -49.6380005, y: 5.59200001, z: 48.375}
        inSlope: {x: 143.663147, y: 0, z: 0}
        outSlope: {x: 143.663147, y: 0, z: 0}
        tangentMode: 0
      - time: 48.3333321
        value: {x: 51.1889992, y: 5.59200001, z: 48.375}
        inSlope: {x: 142.955429, y: 0, z: 0}
        outSlope: {x: 142.955429, y: 0, z: 0}
        tangentMode: 0
      - time: 94.8499985
        value: {x: -49.6380005, y: 5.59200001, z: 48.375}
        inSlope: {x: -2.16754556, y: 0, z: 0}
        outSlope: {x: -2.16754556, y: 0, z: 0}
        tangentMode: 410100
      m_PreInfinity: 2
      m_PostInfinity: 2
    path: 
  m_ScaleCurves: []
  m_FloatCurves: []
  m_PPtrCurves: []
  m_SampleRate: 60
  m_WrapMode: 0
  m_Bounds:
    m_Center: {x: 0, y: 0, z: 0}
    m_Extent: {x: 0, y: 0, z: 0}
  m_ClipBindingConstant:
    genericBindings:
    - path: 0
      attribute: 1
      script: {fileID: 0}
      classID: 4
      customType: 0
      isPPtrCurve: 0
    pptrCurveMapping: []
  m_AnimationClipSettings:
    serializedVersion: 2
    m_StartTime: 0
    m_StopTime: 94.8499985
    m_OrientationOffsetY: 0
    m_Level: 0
    m_CycleOffset: 0
    m_LoopTime: 1
    m_LoopBlend: 0
    m_LoopBlendOrientation: 0
    m_LoopBlendPositionY: 0
    m_LoopBlendPositionXZ: 0
    m_KeepOriginalOrientation: 0
    m_KeepOriginalPositionY: 1
    m_KeepOriginalPositionXZ: 0
    m_HeightFromFeet: 0
    m_Mirror: 0
  m_EditorCurves:
  - curve:
      serializedVersion: 2
      m_Curve:
      - time: 0
        value: -13.5500002
        inSlope: -.752094507
        outSlope: -.752094507
        tangentMode: 10
      - time: 47.9833336
        value: -49.6380005
        inSlope: 143.663147
        outSlope: 143.663147
        tangentMode: 10
      - time: 48.3333321
        value: 51.1889992
        inSlope: 142.955429
        outSlope: 142.955429
        tangentMode: 10
      - time: 94.8499985
        value: -49.6380005
        inSlope: -2.16754556
        outSlope: -2.16754556
        tangentMode: 10
      m_PreInfinity: 2
      m_PostInfinity: 2
    attribute: m_LocalPosition.x
    path: 
    classID: 4
    script: {fileID: 0}
  - curve:
      serializedVersion: 2
      m_Curve:
      - time: 0
        value: 5.59200001
        inSlope: 0
        outSlope: 0
        tangentMode: 10
      - time: 47.9833336
        value: 5.59200001
        inSlope: 0
        outSlope: 0
        tangentMode: 10
      - time: 48.3333321
        value: 5.59200001
        inSlope: 0
        outSlope: 0
        tangentMode: 10
      - time: 94.8499985
        value: 5.59200001
        inSlope: 0
        outSlope: 0
        tangentMode: 10
      m_PreInfinity: 2
      m_PostInfinity: 2
    attribute: m_LocalPosition.y
    path: 
    classID: 4
    script: {fileID: 0}
  - curve:
      serializedVersion: 2
      m_Curve:
      - time: 0
        value: 48.375
        inSlope: 0
        outSlope: 0
        tangentMode: 10
      - time: 47.9833336
        value: 48.375
        inSlope: 0
        outSlope: 0
        tangentMode: 10
      - time: 48.3333321
        value: 48.375
        inSlope: 0
        outSlope: 0
        tangentMode: 10
      - time: 94.8499985
        value: 48.375
        inSlope: 0
        outSlope: 0
        tangentMode: 10
      m_PreInfinity: 2
      m_PostInfinity: 2
    attribute: m_LocalPosition.z
    path: 
    classID: 4
    script: {fileID: 0}
  m_EulerEditorCurves: []
  m_Events: []
