%YAML 1.1
%TAG !u! tag:unity3d.com,2011:
--- !u!74 &7400000
AnimationClip:
  m_ObjectHideFlags: 0
  m_PrefabParentObject: {fileID: 0}
  m_PrefabInternal: {fileID: 0}
  m_Name: mar
  serializedVersion: 4
  m_AnimationType: 2
  m_Compressed: 0
  m_UseHighQualityCurve: 1
  m_RotationCurves: []
  m_CompressedRotationCurves: []
  m_PositionCurves: []
  m_ScaleCurves: []
  m_FloatCurves: []
  m_PPtrCurves:
  - curve:
    - time: -0
      value: {fileID: 21300000, guid: e8229243c9204e64c8baca046f7ecd7a, type: 3}
    - time: .0833333358
      value: {fileID: 21300000, guid: 85212bbe3a950ae409fe6dccd8bc56fc, type: 3}
    - time: .166666672
      value: {fileID: 21300000, guid: 9aebedefecf1a3c44a76ed10e3232ccb, type: 3}
    - time: .25
      value: {fileID: 21300000, guid: 11983e229c50a7945a104889958203e3, type: 3}
    - time: .333333343
      value: {fileID: 21300000, guid: d5aa72206b207e2498b068683dc02ec1, type: 3}
    - time: .416666657
      value: {fileID: 21300000, guid: 3a9918fcda5d0f040b6737e31b7b1de5, type: 3}
    - time: .5
      value: {fileID: 21300000, guid: 5d6549aa35f41424c8057afcad115a7b, type: 3}
    - time: .583333313
      value: {fileID: 21300000, guid: 2286b867b6f0053479d9f8830fd81326, type: 3}
    - time: .666666687
      value: {fileID: 21300000, guid: 453fa4c45f708c940b97f2d8afb42cbe, type: 3}
    - time: .75
      value: {fileID: 21300000, guid: 4fb0bf3b41852834fac0bfecedade01e, type: 3}
    - time: .833333313
      value: {fileID: 21300000, guid: d3b7b82a6dea56e49807dbb28e6671ae, type: 3}
    - time: .916666687
      value: {fileID: 21300000, guid: 48e31fe63bbb21f4e8bb0728cfb9735e, type: 3}
    - time: 1
      value: {fileID: 21300000, guid: a1dd6eded30998f4c851080646af5c6a, type: 3}
    attribute: m_Sprite
    path: 
    classID: 212
    script: {fileID: 0}
  m_SampleRate: 12
  m_WrapMode: 0
  m_Bounds:
    m_Center: {x: 0, y: 0, z: 0}
    m_Extent: {x: 0, y: 0, z: 0}
  m_ClipBindingConstant:
    genericBindings:
    - path: 0
      attribute: 0
      script: {fileID: 0}
      classID: 212
      customType: 23
      isPPtrCurve: 1
    pptrCurveMapping:
    - {fileID: 21300000, guid: e8229243c9204e64c8baca046f7ecd7a, type: 3}
    - {fileID: 21300000, guid: 85212bbe3a950ae409fe6dccd8bc56fc, type: 3}
    - {fileID: 21300000, guid: 9aebedefecf1a3c44a76ed10e3232ccb, type: 3}
    - {fileID: 21300000, guid: 11983e229c50a7945a104889958203e3, type: 3}
    - {fileID: 21300000, guid: d5aa72206b207e2498b068683dc02ec1, type: 3}
    - {fileID: 21300000, guid: 3a9918fcda5d0f040b6737e31b7b1de5, type: 3}
    - {fileID: 21300000, guid: 5d6549aa35f41424c8057afcad115a7b, type: 3}
    - {fileID: 21300000, guid: 2286b867b6f0053479d9f8830fd81326, type: 3}
    - {fileID: 21300000, guid: 453fa4c45f708c940b97f2d8afb42cbe, type: 3}
    - {fileID: 21300000, guid: 4fb0bf3b41852834fac0bfecedade01e, type: 3}
    - {fileID: 21300000, guid: d3b7b82a6dea56e49807dbb28e6671ae, type: 3}
    - {fileID: 21300000, guid: 48e31fe63bbb21f4e8bb0728cfb9735e, type: 3}
    - {fileID: 21300000, guid: a1dd6eded30998f4c851080646af5c6a, type: 3}
  m_AnimationClipSettings:
    serializedVersion: 2
    m_StartTime: 0
    m_StopTime: 1.08333337
    m_OrientationOffsetY: 0
    m_Level: 0
    m_CycleOffset: 0
    m_LoopTime: 1
    m_LoopBlend: 0
    m_LoopBlendOrientation: 0
    m_LoopBlendPositionY: 0
    m_LoopBlendPositionXZ: 0
    m_KeepOriginalOrientation: 0
    m_KeepOriginalPositionY: 1
    m_KeepOriginalPositionXZ: 0
    m_HeightFromFeet: 0
    m_Mirror: 0
  m_EditorCurves: []
  m_EulerEditorCurves: []
  m_Events: []
