%YAML 1.1
%TAG !u! tag:unity3d.com,2011:
--- !u!74 &7400000
AnimationClip:
  m_ObjectHideFlags: 0
  m_PrefabParentObject: {fileID: 0}
  m_PrefabInternal: {fileID: 0}
  m_Name: pedro
  serializedVersion: 4
  m_AnimationType: 2
  m_Compressed: 0
  m_UseHighQualityCurve: 1
  m_RotationCurves: []
  m_CompressedRotationCurves: []
  m_PositionCurves:
  - curve:
      serializedVersion: 2
      m_Curve:
      - time: 0
        value: {x: -3.75, y: -6.03999996, z: 0}
        inSlope: {x: .12046589, y: .22495842, z: -.00465890206}
        outSlope: {x: .12046589, y: .22495842, z: -.00465890206}
        tangentMode: 0
      - time: 30.0499992
        value: {x: -.129999995, y: .720000029, z: -.140000001}
        inSlope: {x: .12046589, y: .22495842, z: -.00465890206}
        outSlope: {x: .12046589, y: .22495842, z: -.00465890206}
        tangentMode: 0
      m_PreInfinity: 2
      m_PostInfinity: 2
    path: 
  m_ScaleCurves:
  - curve:
      serializedVersion: 2
      m_Curve:
      - time: 0
        value: {x: .0545296296, y: .0545296408, z: .0545296408}
        inSlope: {x: -.00152609521, y: -.00152609556, z: -.00152609556}
        outSlope: {x: -.00152609521, y: -.00152609556, z: -.00152609556}
        tangentMode: 0
      - time: 30.0499992
        value: {x: .00867046975, y: .00867047161, z: .00867047161}
        inSlope: {x: -.00152609521, y: -.00152609556, z: -.00152609556}
        outSlope: {x: -.00152609521, y: -.00152609556, z: -.00152609556}
        tangentMode: 1037479589
      m_PreInfinity: 2
      m_PostInfinity: 2
    path: 
  m_FloatCurves: []
  m_PPtrCurves: []
  m_SampleRate: 60
  m_WrapMode: 0
  m_Bounds:
    m_Center: {x: 0, y: 0, z: 0}
    m_Extent: {x: 0, y: 0, z: 0}
  m_ClipBindingConstant:
    genericBindings:
    - path: 0
      attribute: 1
      script: {fileID: 0}
      classID: 4
      customType: 0
      isPPtrCurve: 0
    - path: 0
      attribute: 3
      script: {fileID: 0}
      classID: 4
      customType: 0
      isPPtrCurve: 0
    pptrCurveMapping: []
  m_AnimationClipSettings:
    serializedVersion: 2
    m_StartTime: 0
    m_StopTime: 30.0499992
    m_OrientationOffsetY: 0
    m_Level: 0
    m_CycleOffset: 0
    m_LoopTime: 1
    m_LoopBlend: 0
    m_LoopBlendOrientation: 0
    m_LoopBlendPositionY: 0
    m_LoopBlendPositionXZ: 0
    m_KeepOriginalOrientation: 0
    m_KeepOriginalPositionY: 1
    m_KeepOriginalPositionXZ: 0
    m_HeightFromFeet: 0
    m_Mirror: 0
  m_EditorCurves:
  - curve:
      serializedVersion: 2
      m_Curve:
      - time: 0
        value: -3.75
        inSlope: .12046589
        outSlope: .12046589
        tangentMode: 10
      - time: 30.0499992
        value: -.129999995
        inSlope: .12046589
        outSlope: .12046589
        tangentMode: 10
      m_PreInfinity: 2
      m_PostInfinity: 2
    attribute: m_LocalPosition.x
    path: 
    classID: 4
    script: {fileID: 0}
  - curve:
      serializedVersion: 2
      m_Curve:
      - time: 0
        value: -6.03999996
        inSlope: .22495842
        outSlope: .22495842
        tangentMode: 10
      - time: 30.0499992
        value: .720000029
        inSlope: .22495842
        outSlope: .22495842
        tangentMode: 10
      m_PreInfinity: 2
      m_PostInfinity: 2
    attribute: m_LocalPosition.y
    path: 
    classID: 4
    script: {fileID: 0}
  - curve:
      serializedVersion: 2
      m_Curve:
      - time: 0
        value: 0
        inSlope: -.00465890206
        outSlope: -.00465890206
        tangentMode: 10
      - time: 30.0499992
        value: -.140000001
        inSlope: -.00465890206
        outSlope: -.00465890206
        tangentMode: 10
      m_PreInfinity: 2
      m_PostInfinity: 2
    attribute: m_LocalPosition.z
    path: 
    classID: 4
    script: {fileID: 0}
  - curve:
      serializedVersion: 2
      m_Curve:
      - time: 0
        value: .0545296296
        inSlope: -.00152609521
        outSlope: -.00152609521
        tangentMode: 10
      - time: 30.0499992
        value: .00867046975
        inSlope: -.00152609521
        outSlope: -.00152609521
        tangentMode: 10
      m_PreInfinity: 2
      m_PostInfinity: 2
    attribute: m_LocalScale.x
    path: 
    classID: 4
    script: {fileID: 0}
  - curve:
      serializedVersion: 2
      m_Curve:
      - time: 0
        value: .0545296408
        inSlope: -.00152609556
        outSlope: -.00152609556
        tangentMode: 10
      - time: 30.0499992
        value: .00867047161
        inSlope: -.00152609556
        outSlope: -.00152609556
        tangentMode: 10
      m_PreInfinity: 2
      m_PostInfinity: 2
    attribute: m_LocalScale.y
    path: 
    classID: 4
    script: {fileID: 0}
  - curve:
      serializedVersion: 2
      m_Curve:
      - time: 0
        value: .0545296408
        inSlope: -.00152609556
        outSlope: -.00152609556
        tangentMode: 10
      - time: 30.0499992
        value: .00867047161
        inSlope: -.00152609556
        outSlope: -.00152609556
        tangentMode: 10
      m_PreInfinity: 2
      m_PostInfinity: 2
    attribute: m_LocalScale.z
    path: 
    classID: 4
    script: {fileID: 0}
  m_EulerEditorCurves: []
  m_Events: []
