%YAML 1.1
%TAG !u! tag:unity3d.com,2011:
--- !u!74 &7400000
AnimationClip:
  m_ObjectHideFlags: 0
  m_PrefabParentObject: {fileID: 0}
  m_PrefabInternal: {fileID: 0}
  m_Name: rostocthulhu
  serializedVersion: 4
  m_AnimationType: 2
  m_Compressed: 0
  m_UseHighQualityCurve: 1
  m_RotationCurves: []
  m_CompressedRotationCurves: []
  m_PositionCurves:
  - curve:
      serializedVersion: 2
      m_Curve:
      - time: 0
        value: {x: 1.09239995, y: .679149985, z: 0}
        inSlope: {x: -.0793999434, y: .0792999864, z: 0}
        outSlope: {x: -.0793999434, y: .0792999864, z: 0}
        tangentMode: 114701124
      - time: 1
        value: {x: 1.01300001, y: .758449972, z: 0}
        inSlope: {x: .00441110879, y: -.00440555438, z: 0}
        outSlope: {x: .00441110879, y: -.00440555438, z: 0}
        tangentMode: 121085020
      - time: 1.89999998
        value: {x: 1.09239995, y: .679149985, z: 0}
        inSlope: {x: .0882221609, y: -.0881110951, z: 0}
        outSlope: {x: .0882221609, y: -.0881110951, z: 0}
        tangentMode: 0
      m_PreInfinity: 2
      m_PostInfinity: 2
    path: 
  m_ScaleCurves: []
  m_FloatCurves: []
  m_PPtrCurves: []
  m_SampleRate: 40
  m_WrapMode: 0
  m_Bounds:
    m_Center: {x: 0, y: 0, z: 0}
    m_Extent: {x: 0, y: 0, z: 0}
  m_ClipBindingConstant:
    genericBindings:
    - path: 0
      attribute: 1
      script: {fileID: 0}
      classID: 4
      customType: 0
      isPPtrCurve: 0
    pptrCurveMapping: []
  m_AnimationClipSettings:
    serializedVersion: 2
    m_StartTime: 0
    m_StopTime: 1.89999998
    m_OrientationOffsetY: 0
    m_Level: 0
    m_CycleOffset: 0
    m_LoopTime: 1
    m_LoopBlend: 0
    m_LoopBlendOrientation: 0
    m_LoopBlendPositionY: 0
    m_LoopBlendPositionXZ: 0
    m_KeepOriginalOrientation: 0
    m_KeepOriginalPositionY: 1
    m_KeepOriginalPositionXZ: 0
    m_HeightFromFeet: 0
    m_Mirror: 0
  m_EditorCurves:
  - curve:
      serializedVersion: 2
      m_Curve:
      - time: 0
        value: 1.09239995
        inSlope: -.0793999434
        outSlope: -.0793999434
        tangentMode: 10
      - time: 1
        value: 1.01300001
        inSlope: .00441110879
        outSlope: .00441110879
        tangentMode: 10
      - time: 1.89999998
        value: 1.09239995
        inSlope: .0882221609
        outSlope: .0882221609
        tangentMode: 10
      m_PreInfinity: 2
      m_PostInfinity: 2
    attribute: m_LocalPosition.x
    path: 
    classID: 4
    script: {fileID: 0}
  - curve:
      serializedVersion: 2
      m_Curve:
      - time: 0
        value: .679149985
        inSlope: .0792999864
        outSlope: .0792999864
        tangentMode: 10
      - time: 1
        value: .758449972
        inSlope: -.00440555438
        outSlope: -.00440555438
        tangentMode: 10
      - time: 1.89999998
        value: .679149985
        inSlope: -.0881110951
        outSlope: -.0881110951
        tangentMode: 10
      m_PreInfinity: 2
      m_PostInfinity: 2
    attribute: m_LocalPosition.y
    path: 
    classID: 4
    script: {fileID: 0}
  - curve:
      serializedVersion: 2
      m_Curve:
      - time: 0
        value: 0
        inSlope: 0
        outSlope: 0
        tangentMode: 10
      - time: 1
        value: 0
        inSlope: 0
        outSlope: 0
        tangentMode: 10
      - time: 1.89999998
        value: 0
        inSlope: 0
        outSlope: 0
        tangentMode: 10
      m_PreInfinity: 2
      m_PostInfinity: 2
    attribute: m_LocalPosition.z
    path: 
    classID: 4
    script: {fileID: 0}
  m_EulerEditorCurves: []
  m_Events: []
