%YAML 1.1
%TAG !u! tag:unity3d.com,2011:
--- !u!74 &7400000
AnimationClip:
  m_ObjectHideFlags: 0
  m_PrefabParentObject: {fileID: 0}
  m_PrefabInternal: {fileID: 0}
  m_Name: Espada
  serializedVersion: 4
  m_AnimationType: 2
  m_Compressed: 0
  m_UseHighQualityCurve: 1
  m_RotationCurves:
  - curve:
      serializedVersion: 2
      m_Curve:
      - time: 0
        value: {x: -0, y: -0, z: -0, w: -1}
        inSlope: {x: 0, y: 0, z: -18.5410194, w: 2.93660736}
        outSlope: {x: 0, y: 0, z: -18.5410194, w: 2.93660736}
        tangentMode: 0
      - time: .0166666675
        value: {x: -0, y: -0, z: -.309017003, w: -.95105654}
        inSlope: {x: 0, y: 0, z: -17.6335564, w: 5.7294898}
        outSlope: {x: 0, y: 0, z: -17.6335564, w: 5.7294898}
        tangentMode: 13
      - time: .0333333351
        value: {x: -0, y: -0, z: -.587785244, w: -.809017003}
        inSlope: {x: 0, y: 0, z: -15, w: 10.89814}
        outSlope: {x: 0, y: 0, z: -15, w: 10.89814}
        tangentMode: 13
      - time: .0500000045
        value: {x: -0, y: -0, z: -.809017062, w: -.587785184}
        inSlope: {x: 0, y: 0, z: -10.898138, w: 15}
        outSlope: {x: 0, y: 0, z: -10.898138, w: 15}
        tangentMode: 749010800
      - time: .0666666701
        value: {x: -0, y: -0, z: -.95105654, w: -.309016973}
        inSlope: {x: 0, y: 0, z: -5.72948837, w: 17.6335564}
        outSlope: {x: 0, y: 0, z: -5.72948837, w: 17.6335564}
        tangentMode: 0
      - time: .0833333358
        value: {x: -0, y: -0, z: -1, w: 4.37113883e-08}
        inSlope: {x: 0, y: 0, z: 0, w: 18.5410194}
        outSlope: {x: 0, y: 0, z: 0, w: 18.5410194}
        tangentMode: 0
      - time: .100000001
        value: {x: -0, y: -0, z: -.95105654, w: .309016943}
        inSlope: {x: 0, y: 0, z: 5.72949028, w: 17.6335564}
        outSlope: {x: 0, y: 0, z: 5.72949028, w: 17.6335564}
        tangentMode: 39
      - time: .116666667
        value: {x: -0, y: -0, z: -.809017003, w: .587785184}
        inSlope: {x: 0, y: 0, z: 10.898138, w: 15.0000019}
        outSlope: {x: 0, y: 0, z: 10.898138, w: 15.0000019}
        tangentMode: 1087373312
      - time: .13333334
        value: {x: -0, y: -0, z: -.587785184, w: .809017062}
        inSlope: {x: 0, y: 0, z: 14.9999962, w: 10.8981361}
        outSlope: {x: 0, y: 0, z: 14.9999962, w: 10.8981361}
        tangentMode: 16777473
      - time: .150000006
        value: {x: -0, y: -0, z: -.309017032, w: .95105648}
        inSlope: {x: 0, y: 0, z: 17.6335602, w: 5.72948837}
        outSlope: {x: 0, y: 0, z: 17.6335602, w: 5.72948837}
        tangentMode: 0
      - time: .166666672
        value: {x: -0, y: -0, z: 8.74227766e-08, w: 1}
        inSlope: {x: 0, y: 0, z: 18.541029, w: 2.93661141}
        outSlope: {x: 0, y: 0, z: 18.541029, w: 2.93661141}
        tangentMode: 1236708480
      m_PreInfinity: 2
      m_PostInfinity: 2
    path: 
  m_CompressedRotationCurves: []
  m_PositionCurves: []
  m_ScaleCurves: []
  m_FloatCurves: []
  m_PPtrCurves: []
  m_SampleRate: 60
  m_WrapMode: 0
  m_Bounds:
    m_Center: {x: 0, y: 0, z: 0}
    m_Extent: {x: 0, y: 0, z: 0}
  m_ClipBindingConstant:
    genericBindings:
    - path: 0
      attribute: 2
      script: {fileID: 0}
      classID: 4
      customType: 0
      isPPtrCurve: 0
    pptrCurveMapping: []
  m_AnimationClipSettings:
    serializedVersion: 2
    m_StartTime: 0
    m_StopTime: .166666672
    m_OrientationOffsetY: 0
    m_Level: 0
    m_CycleOffset: 0
    m_LoopTime: 1
    m_LoopBlend: 0
    m_LoopBlendOrientation: 0
    m_LoopBlendPositionY: 0
    m_LoopBlendPositionXZ: 0
    m_KeepOriginalOrientation: 0
    m_KeepOriginalPositionY: 1
    m_KeepOriginalPositionXZ: 0
    m_HeightFromFeet: 0
    m_Mirror: 0
  m_EditorCurves:
  - curve:
      serializedVersion: 2
      m_Curve:
      - time: 0
        value: -0
        inSlope: 0
        outSlope: 0
        tangentMode: 0
      - time: .0166666675
        value: -0
        inSlope: 0
        outSlope: 0
        tangentMode: 0
      - time: .0333333351
        value: -0
        inSlope: 0
        outSlope: 0
        tangentMode: 0
      - time: .0500000045
        value: -0
        inSlope: 0
        outSlope: 0
        tangentMode: 0
      - time: .0666666701
        value: -0
        inSlope: 0
        outSlope: 0
        tangentMode: 0
      - time: .0833333358
        value: -0
        inSlope: 0
        outSlope: 0
        tangentMode: 0
      - time: .100000001
        value: -0
        inSlope: 0
        outSlope: 0
        tangentMode: 0
      - time: .116666667
        value: -0
        inSlope: 0
        outSlope: 0
        tangentMode: 0
      - time: .13333334
        value: -0
        inSlope: 0
        outSlope: 0
        tangentMode: 0
      - time: .150000006
        value: -0
        inSlope: 0
        outSlope: 0
        tangentMode: 0
      - time: .166666672
        value: -0
        inSlope: 0
        outSlope: 0
        tangentMode: 0
      m_PreInfinity: 2
      m_PostInfinity: 2
    attribute: m_LocalRotation.x
    path: 
    classID: 4
    script: {fileID: 0}
  - curve:
      serializedVersion: 2
      m_Curve:
      - time: 0
        value: -0
        inSlope: 0
        outSlope: 0
        tangentMode: 0
      - time: .0166666675
        value: -0
        inSlope: 0
        outSlope: 0
        tangentMode: 0
      - time: .0333333351
        value: -0
        inSlope: 0
        outSlope: 0
        tangentMode: 0
      - time: .0500000045
        value: -0
        inSlope: 0
        outSlope: 0
        tangentMode: 0
      - time: .0666666701
        value: -0
        inSlope: 0
        outSlope: 0
        tangentMode: 0
      - time: .0833333358
        value: -0
        inSlope: 0
        outSlope: 0
        tangentMode: 0
      - time: .100000001
        value: -0
        inSlope: 0
        outSlope: 0
        tangentMode: 0
      - time: .116666667
        value: -0
        inSlope: 0
        outSlope: 0
        tangentMode: 0
      - time: .13333334
        value: -0
        inSlope: 0
        outSlope: 0
        tangentMode: 0
      - time: .150000006
        value: -0
        inSlope: 0
        outSlope: 0
        tangentMode: 0
      - time: .166666672
        value: -0
        inSlope: 0
        outSlope: 0
        tangentMode: 0
      m_PreInfinity: 2
      m_PostInfinity: 2
    attribute: m_LocalRotation.y
    path: 
    classID: 4
    script: {fileID: 0}
  - curve:
      serializedVersion: 2
      m_Curve:
      - time: 0
        value: -0
        inSlope: -18.5410194
        outSlope: -18.5410194
        tangentMode: 0
      - time: .0166666675
        value: -.309017003
        inSlope: -17.6335564
        outSlope: -17.6335564
        tangentMode: 0
      - time: .0333333351
        value: -.587785244
        inSlope: -15
        outSlope: -15
        tangentMode: 0
      - time: .0500000045
        value: -.809017062
        inSlope: -10.898138
        outSlope: -10.898138
        tangentMode: 0
      - time: .0666666701
        value: -.95105654
        inSlope: -5.72948837
        outSlope: -5.72948837
        tangentMode: 0
      - time: .0833333358
        value: -1
        inSlope: 0
        outSlope: 0
        tangentMode: 0
      - time: .100000001
        value: -.95105654
        inSlope: 5.72949028
        outSlope: 5.72949028
        tangentMode: 0
      - time: .116666667
        value: -.809017003
        inSlope: 10.898138
        outSlope: 10.898138
        tangentMode: 0
      - time: .13333334
        value: -.587785184
        inSlope: 14.9999962
        outSlope: 14.9999962
        tangentMode: 0
      - time: .150000006
        value: -.309017032
        inSlope: 17.6335602
        outSlope: 17.6335602
        tangentMode: 0
      - time: .166666672
        value: 8.74227766e-08
        inSlope: 18.541029
        outSlope: 18.541029
        tangentMode: 0
      m_PreInfinity: 2
      m_PostInfinity: 2
    attribute: m_LocalRotation.z
    path: 
    classID: 4
    script: {fileID: 0}
  - curve:
      serializedVersion: 2
      m_Curve:
      - time: 0
        value: -1
        inSlope: 2.93660736
        outSlope: 2.93660736
        tangentMode: 0
      - time: .0166666675
        value: -.95105654
        inSlope: 5.7294898
        outSlope: 5.7294898
        tangentMode: 0
      - time: .0333333351
        value: -.809017003
        inSlope: 10.89814
        outSlope: 10.89814
        tangentMode: 0
      - time: .0500000045
        value: -.587785184
        inSlope: 15
        outSlope: 15
        tangentMode: 0
      - time: .0666666701
        value: -.309016973
        inSlope: 17.6335564
        outSlope: 17.6335564
        tangentMode: 0
      - time: .0833333358
        value: 4.37113883e-08
        inSlope: 18.5410194
        outSlope: 18.5410194
        tangentMode: 0
      - time: .100000001
        value: .309016943
        inSlope: 17.6335564
        outSlope: 17.6335564
        tangentMode: 0
      - time: .116666667
        value: .587785184
        inSlope: 15.0000019
        outSlope: 15.0000019
        tangentMode: 0
      - time: .13333334
        value: .809017062
        inSlope: 10.8981361
        outSlope: 10.8981361
        tangentMode: 0
      - time: .150000006
        value: .95105648
        inSlope: 5.72948837
        outSlope: 5.72948837
        tangentMode: 0
      - time: .166666672
        value: 1
        inSlope: 2.93661141
        outSlope: 2.93661141
        tangentMode: 0
      m_PreInfinity: 2
      m_PostInfinity: 2
    attribute: m_LocalRotation.w
    path: 
    classID: 4
    script: {fileID: 0}
  m_EulerEditorCurves:
  - curve:
      serializedVersion: 2
      m_Curve:
      - time: 0
        value: 0
        inSlope: 0
        outSlope: 0
        tangentMode: 10
      - time: .166666672
        value: 0
        inSlope: 0
        outSlope: 0
        tangentMode: 10
      m_PreInfinity: 2
      m_PostInfinity: 2
    attribute: localEulerAnglesBaked.x
    path: 
    classID: 4
    script: {fileID: 0}
  - curve:
      serializedVersion: 2
      m_Curve:
      - time: 0
        value: 0
        inSlope: 0
        outSlope: 0
        tangentMode: 10
      - time: .166666672
        value: 0
        inSlope: 0
        outSlope: 0
        tangentMode: 10
      m_PreInfinity: 2
      m_PostInfinity: 2
    attribute: localEulerAnglesBaked.y
    path: 
    classID: 4
    script: {fileID: 0}
  - curve:
      serializedVersion: 2
      m_Curve:
      - time: 0
        value: 0
        inSlope: 2160
        outSlope: 2160
        tangentMode: 10
      - time: .166666672
        value: 360
        inSlope: 2160
        outSlope: 2160
        tangentMode: 10
      m_PreInfinity: 2
      m_PostInfinity: 2
    attribute: localEulerAnglesBaked.z
    path: 
    classID: 4
    script: {fileID: 0}
  m_Events: []
