%YAML 1.1
%TAG !u! tag:unity3d.com,2011:
--- !u!74 &7400000
AnimationClip:
  m_ObjectHideFlags: 0
  m_PrefabParentObject: {fileID: 0}
  m_PrefabInternal: {fileID: 0}
  m_Name: animal3
  serializedVersion: 4
  m_AnimationType: 2
  m_Compressed: 0
  m_UseHighQualityCurve: 1
  m_RotationCurves: []
  m_CompressedRotationCurves: []
  m_PositionCurves: []
  m_ScaleCurves: []
  m_FloatCurves: []
  m_PPtrCurves:
  - curve:
    - time: 0
      value: {fileID: 21300000, guid: f77502063505a01489f629834da98d1c, type: 3}
    - time: .0833333358
      value: {fileID: 21300000, guid: c3d99246fc5174c44a601d0df90d6add, type: 3}
    - time: .166666672
      value: {fileID: 21300000, guid: 015a2c025ad19314d8058d3f8c4d8e2b, type: 3}
    - time: .25
      value: {fileID: 21300000, guid: 753fedbdb9e86d644a0475dc0ad8ae9a, type: 3}
    - time: .333333343
      value: {fileID: 21300000, guid: c56d06b822169d947b902c431b58ed8f, type: 3}
    - time: .416666657
      value: {fileID: 21300000, guid: 53e523969021adc4cbd9d2f5a32b57b3, type: 3}
    - time: .5
      value: {fileID: 21300000, guid: 7342717bb0e1efd4bae3059576ed64ab, type: 3}
    attribute: m_Sprite
    path: 
    classID: 212
    script: {fileID: 0}
  m_SampleRate: 12
  m_WrapMode: 0
  m_Bounds:
    m_Center: {x: 0, y: 0, z: 0}
    m_Extent: {x: 0, y: 0, z: 0}
  m_ClipBindingConstant:
    genericBindings:
    - path: 0
      attribute: 0
      script: {fileID: 0}
      classID: 212
      customType: 23
      isPPtrCurve: 1
    pptrCurveMapping:
    - {fileID: 21300000, guid: f77502063505a01489f629834da98d1c, type: 3}
    - {fileID: 21300000, guid: c3d99246fc5174c44a601d0df90d6add, type: 3}
    - {fileID: 21300000, guid: 015a2c025ad19314d8058d3f8c4d8e2b, type: 3}
    - {fileID: 21300000, guid: 753fedbdb9e86d644a0475dc0ad8ae9a, type: 3}
    - {fileID: 21300000, guid: c56d06b822169d947b902c431b58ed8f, type: 3}
    - {fileID: 21300000, guid: 53e523969021adc4cbd9d2f5a32b57b3, type: 3}
    - {fileID: 21300000, guid: 7342717bb0e1efd4bae3059576ed64ab, type: 3}
  m_AnimationClipSettings:
    serializedVersion: 2
    m_StartTime: 0
    m_StopTime: .583333313
    m_OrientationOffsetY: 0
    m_Level: 0
    m_CycleOffset: 0
    m_LoopTime: 1
    m_LoopBlend: 0
    m_LoopBlendOrientation: 0
    m_LoopBlendPositionY: 0
    m_LoopBlendPositionXZ: 0
    m_KeepOriginalOrientation: 0
    m_KeepOriginalPositionY: 1
    m_KeepOriginalPositionXZ: 0
    m_HeightFromFeet: 0
    m_Mirror: 0
  m_EditorCurves: []
  m_EulerEditorCurves: []
  m_Events: []
